(kicad_wks (version 20210606) (generator pl_editor)
  (setup (textsize 1.5 1.5)(linewidth 0.15)(textlinewidth 0.15)
  (left_margin 10)(right_margin 10)(top_margin 10)(bottom_margin 10))
  (rect (name "") (start 110 34) (end 2 2) (comment "rect around the title block")
)
  (rect (name "") (start 0 0 ltcorner) (end 0 0) (repeat 2) (incrx 2) (incry 2))
  (line (name "") (start 50 2 ltcorner) (end 50 0 ltcorner) (repeat 30) (incrx 50))
  (tbtext "1" (name "") (pos 25 1 ltcorner) (font (size 1.3 1.3)) (repeat 100) (incrx 50))
  (line (name "") (start 50 2 lbcorner) (end 50 0 lbcorner) (repeat 30) (incrx 50))
  (tbtext "1" (name "") (pos 25 1 lbcorner) (font (size 1.3 1.3)) (repeat 100) (incrx 50))
  (line (name "") (start 0 50 ltcorner) (end 2 50 ltcorner) (repeat 30) (incry 50))
  (tbtext "A" (name "") (pos 1 25 ltcorner) (font (size 1.3 1.3)) (justify center) (repeat 100) (incry 50))
  (line (name "") (start 0 50 rtcorner) (end 2 50 rtcorner) (repeat 30) (incry 50))
  (tbtext "A" (name "") (pos 1 25 rtcorner) (font (size 1.3 1.3)) (justify center) (repeat 100) (incry 50))
  (tbtext "Date: ${ISSUE_DATE}" (name "") (pos 87 6.9))
  (line (name "") (start 110 5.5) (end 2 5.5))
  (tbtext "${KICAD_VERSION}" (name "") (pos 109 4.1) (comment "Kicad version")
)
  (line (name "") (start 110 8.5) (end 2 8.5))
  (tbtext "Rev: ${REVISION}" (name "") (pos 24 6.9) (font bold))
  (tbtext "Size: ${PAPER}" (name "") (pos 109 6.9) (comment "Paper format name")
)
  (tbtext "Id: ${#}/${##}" (name "") (pos 24 4.1) (comment "Sheet id")
)
  (line (name "") (start 110 12.5) (end 2 12.5))
  (tbtext "Title: ${TITLE}" (name "") (pos 109 10.7) (font (size 2 2) bold italic))
  (tbtext "File: ${FILENAME}" (name "") (pos 109 14.3))
  (line (name "") (start 110 18.5) (end 2 18.5))
  (tbtext "Sheet: ${SHEETNAME}" (name "") (pos 109 17))
  (tbtext "${COMPANY}" (name "") (pos 109 20) (font bold) (comment "Company name")
)
  (tbtext "${COMMENT1}" (name "") (pos 109 23) (comment "Comment 0")
)
  (tbtext "${COMMENT2}" (name "") (pos 109 26) (comment "Comment 1")
)
  (tbtext "${COMMENT3}" (name "") (pos 109 29) (comment "Comment 2")
)
  (tbtext "${COMMENT4}" (name "") (pos 109 32) (comment "Comment 3")
)
  (line (name "") (start 90 8.5) (end 90 5.5))
  (line (name "") (start 26 8.5) (end 26 2))
  (bitmap (name "") (pos 22.489 26.5022) (scale 1)
  (pngdata
    (data "89 50 4E 47 0D 0A 1A 0A 00 00 00 0D 49 48 44 52 00 00 01 B2 00 00 00 80 08 06 00 00 00 6E B6 EC ")
    (data "0E 00 00 00 04 73 42 49 54 08 08 08 08 7C 08 64 88 00 00 00 09 70 48 59 73 00 00 0E 74 00 00 0E ")
    (data "74 01 6B 24 B3 D6 00 00 20 00 49 44 41 54 78 9C ED 9D 77 BC 5C 45 F5 C0 BF 67 77 5F 4F 42 A8 01 ")
    (data "09 04 E9 4D 5A 54 22 45 8A 14 41 29 A2 20 45 50 8A 80 FE 42 91 8E 80 10 40 08 45 44 08 52 04 15 ")
    (data "11 14 10 44 14 10 10 08 D2 11 A4 08 41 08 45 9A 54 09 29 AF 6E 39 BF 3F CE 5D F2 F2 72 E7 96 2D ")
    (data "EF BD CD 9B EF E7 73 3F 81 37 77 E6 CE EE CE 9D 33 73 E6 14 51 55 3C 1E 11 59 01 D8 21 E6 B6 27 ")
    (data "55 F5 C9 C1 E8 4F 3D 10 91 36 E0 7B C0 B7 81 55 80 76 A0 0F F8 00 B8 0B 38 5F 55 5F 18 BA 1E 7A ")
    (data "3C 0B 22 22 EB 00 C7 01 DB 00 4B 01 39 A0 0B 98 09 FC 1A B8 42 55 7B 86 AC 83 C3 04 F1 82 CC 03 ")
    (data "20 22 3B 02 7F 00 F2 8E 5B 5A 80 A9 AA 7A DA A0 75 AA 86 88 C8 52 C0 E3 C0 38 4C 80 0D A4 08 F4 ")
    (data "02 07 A9 EA EF 06 B3 6F 1E 4F 18 22 B2 37 F0 0B EC DD CB 86 DC D2 09 BC 07 6C AC AA 1F 0E 66 DF ")
    (data "86 1B 99 A1 EE 80 67 58 D1 0B 8C 71 5C 2D 43 D8 AF 5A 70 19 B0 3C E1 42 0C 6C A2 68 07 AE 14 91 ")
    (data "65 07 AD 57 1E 4F 08 22 32 0E 13 62 ED 84 0B 31 80 0E 60 05 E0 F2 C1 EA D7 70 25 27 22 07 C7 DC ")
    (data "A3 AA FA 8B 4A 1F 20 22 CB 00 BB C6 DC F6 9E AA FE A9 D2 67 78 3C 51 88 48 33 F0 55 A0 39 61 95 ")
    (data "AF 01 97 D6 AF 47 1E 4F 2C BB 24 BC AF 09 F8 8A 88 B4 A8 6A 6F 3D 3B 34 9C C9 61 D2 7C 8E A3 5C ")
    (data "80 51 D8 CA A0 52 56 06 7E 86 9D 45 84 91 05 FE 03 78 41 E6 A9 17 CB 00 05 92 ED 2A DB 81 D5 EB ")
    (data "DB 1D 8F 27 96 55 71 6B 0F 06 92 07 96 C3 E6 D1 11 49 2E F8 77 4C C4 3D B5 38 44 EB 01 C6 46 94 ")
    (data "7B 15 A7 A7 9E 34 91 6E 1C 37 BA 1A D5 D3 F8 24 D5 1E 80 8D ED A6 7A 75 A4 11 F0 02 C4 33 12 E8 ")
    (data "C3 B4 0B 49 E9 AE 57 47 3C 9E 84 A4 51 13 4A CA FB 17 39 BC 20 F3 8C 04 DE C3 7D 60 3E 90 4E C0 ")
    (data "9B E0 7B 86 9A 17 81 79 09 EF CD 01 EF D4 B1 2F C3 1E 2F C8 3C 8B 3C AA 5A 00 6E 24 D9 AA 55 81 ")
    (data "9B EB DB 23 8F 27 96 5B 48 A6 45 E8 05 6E 52 55 97 DB CC 88 C0 0B 32 CF 48 E1 30 E0 65 6C C7 15 ")
    (data "46 2F B6 02 DE 5D 55 3F 1A B4 5E 79 3C 21 04 63 70 6F 6C BC 16 1C B7 75 62 06 1E 93 07 A9 5B C3 ")
    (data "16 2F C8 3C 23 02 55 9D 0D 6C 04 1C 03 3C 89 09 AD 12 F0 31 F0 0C 70 01 B0 A6 AA FE 75 C8 3A 39 ")
    (data "82 10 91 AC 88 2C 1E 71 8D 1A EA 3E 0E 35 AA 7A 2B B0 3E F0 2B E0 2D E6 07 2B E8 C2 C6 EC 89 C0 ")
    (data "FA AA FA F1 D0 F4 70 F8 90 8B BF C5 E3 59 34 50 D5 3E CC 31 FA B2 A1 EE CB 48 44 44 04 0B 0F 76 ")
    (data "02 B0 1A EE 28 32 19 60 3A B0 DD E0 F4 6C F8 A2 AA AF 00 71 BE BE 23 1E 2F C8 3C 1E 4F DD 09 84 ")
    (data "D8 EF 30 C7 F4 8E E0 CF 51 6E 0E 69 CC CF 3D 23 1C AF 5A F4 78 3C 83 C1 B7 81 AF 30 5F 88 79 3C ")
    (data "35 C3 0B 32 8F C7 33 18 9C 88 45 09 F2 78 6A CE 88 11 64 22 32 46 44 92 86 7C 19 16 88 48 5B 70 ")
    (data "F0 3D 62 7E 27 8F 1B 11 E9 10 91 86 8B 3A 12 C4 BA 5C 79 A8 FB E1 19 5C C4 58 7C 30 9E B5 48 9D ")
    (data "91 05 7A F8 0D 81 2F 03 9B 02 EB 60 71 F6 DA 08 A2 3B 04 42 A1 13 F8 10 78 08 B8 17 98 AE AA FF ")
    (data "19 8A 3E 63 9D CA 60 FD DD 36 B8 56 C6 72 0F 95 08 62 04 8A 48 1F 30 0B 78 0A 3B 08 FF 93 AA BE ")
    (data "38 24 1D AE 10 11 D9 84 64 F1 E3 BA 55 F5 A1 98 B6 96 01 D6 AB 49 C7 16 E4 FE 5A FA E4 88 C8 04 ")
    (data "CC B0 21 8A 97 54 F5 8D 01 F5 9A 81 DD 80 3D 80 4D 98 3F 1E 32 22 92 07 3E 02 FE 8E F9 BC DD A9 ")
    (data "AA AE 78 A9 35 47 44 3E 0D 6C 8E 8D D5 0D 80 C5 81 D1 40 2B 96 0E A7 07 78 1B 1B AB F7 06 FF E6 ")
    (data "59 C4 E6 9B B4 88 C8 17 A8 BD 6A 75 56 AD 73 04 8A C8 A6 D8 9C E9 22 AF AA F7 87 D4 9B 00 EC 0F ")
    (data "EC 08 AC 8D 7D D6 9E 60 2C CF C5 C6 C4 CD C0 9F 55 F5 F1 5A F6 19 CC 01 34 EA 2A A9 2A 95 5E C0 ")
    (data "24 6C 02 8E 7A C6 8C 2A 9F B1 0C 70 16 F0 3F 2C 00 72 6F 82 CF 55 BE E6 62 E6 AC 0F 02 3B 01 99 ")
    (data "6A FA 92 B2 DF 8B 03 53 FA F5 BB 2F 61 9F 7B 30 61 FC 22 B0 17 41 5E B9 2A FB B2 63 82 DF E9 B4 ")
    (data "2A DA 3F 23 E8 F3 EC 88 AB 37 F8 6C 5F 4A D0 DE 6E 58 28 A9 A8 F6 D2 5E 05 60 F1 1A FF C6 47 07 ")
    (data "9F C9 F5 CC 1E E0 A8 7E F7 0B 70 10 E6 16 30 27 EE DD 0C DA 98 83 59 02 B6 D5 71 AC 36 05 63 ED ")
    (data "F9 E0 77 8C EB 5B FF F7 AB 87 05 DF C9 DE E0 9D EB 8C B8 FE 30 58 EF E1 60 5D C0 EB 98 DB 47 AD ")
    (data "C6 6B 27 F0 8F 3A F4 F3 DD E0 77 0B 7B E6 1C 60 CE 80 FB 97 C1 04 54 57 F0 5B 47 8D 87 BE A0 ED ")
    (data "A7 81 CD 6A D8 E7 C6 15 64 D8 0A F0 EC E0 0B EC 4E F8 62 C5 BD 74 8F 03 13 EA 3C A0 33 98 13 63 ")
    (data "59 88 56 DB E7 17 80 75 AB EC 53 DD 04 19 F0 63 EC 05 8E FB 2C F3 80 2D 13 B6 B9 1B 36 D9 57 FB ")
    (data "9B 0F 5C 20 D4 43 90 45 2D AC 7A 09 04 19 B6 5B BD 3B F8 4D D3 F6 7D 1E E6 6B B4 6A 1D C6 EB 16 ")
    (data "D8 E4 96 54 78 C5 5D 9D C0 A7 EA F9 8E 0D C7 2B F8 7D 6A 39 5E 15 F8 67 1D FA F9 7E DC 58 EB 77 ")
    (data "EF 26 C1 7B 98 66 F3 A0 D8 22 6C 1E 96 2E 29 5B 6D 9F 1B F6 EC 45 44 D6 04 5E 02 0E C7 B6 C1 AD ")
    (data "35 68 76 14 A6 9A 7C 4E 44 76 AB 41 7B 0B 21 22 4B 00 F7 63 02 78 14 D1 5B F8 24 8C 02 D6 00 1E ")
    (data "0D 32 CA 0E 2B 44 E4 6C E0 08 E2 55 2A 9D C0 0E AA 3A BD EE 9D 1A 86 04 EA 97 BF 63 2A E6 4A 8C ")
    (data "22 3A B0 54 1E 4F 88 C8 E7 6B D4 A7 8C 88 FC 14 B8 1D CB AC 3D BA 16 ED 06 4C 0D 3E B3 A7 41 11 ")
    (data "91 CD 80 BB 80 C5 48 EF 2E 21 D8 98 DD 17 B8 BD DA B3 DF 86 14 64 C1 59 CB 63 44 67 FC AD 94 1C ")
    (data "36 91 5C 23 22 49 93 DB 25 42 44 96 C3 3C F2 3F 4F 6D 2D B8 CA 83 E2 17 22 B2 5F 0D DB AD 0A 11 ")
    (data "39 17 0B 0D 15 27 C4 E6 01 DB A9 EA 03 F5 EF D5 B0 E5 72 60 2D AA 5B D8 64 B0 49 E5 0E 11 59 BA ")
    (data "46 7D FA 2E B5 7F C7 DA 81 AF 03 B7 89 C8 88 4E 3F D2 A8 04 73 D9 9F A9 FE CC AF 03 D8 0C F8 69 ")
    (data "35 8D 34 9C 20 13 91 D5 80 3B B0 1C 6A F5 EC 7F 3B F0 5B 11 59 B5 16 8D 89 C8 62 C0 A3 D8 CA B6 ")
    (data "5E 2B D1 76 E0 52 11 D9 BA 4E ED 27 46 44 CE 07 BE 4F F4 40 2F AB C4 B6 51 D5 87 07 A5 63 C3 93 ")
    (data "CD 31 A3 8E 5A 09 8C 51 C0 0D D5 34 20 22 53 B0 33 B1 24 13 55 11 53 91 CF C3 54 FC A5 04 75 DA ")
    (data "31 B5 D4 B4 4A FB E8 19 52 2E A7 76 E3 B5 1D F8 B6 88 EC 58 69 03 0D 65 45 14 58 F7 DD 4A B2 DD ")
    (data "4C 11 7B B1 04 8B 20 A0 D8 61 7E 11 7B 39 93 7C F6 36 E0 D7 D8 8A A1 62 02 6B CA 5B 30 21 96 76 ")
    (data "05 DA 4B BA 44 8F ED C0 0D 22 B2 9A AA CE 4A F9 AC 9A 20 22 17 60 61 75 92 08 B1 AD 55 F5 89 41 ")
    (data "E9 D8 F0 65 57 C7 DF FB 98 9F 4B AD 99 E4 63 A7 19 F8 AC 88 6C AD AA F7 A6 ED 8C 88 AC 81 C5 A4 ")
    (data "8C 9A A8 F2 D8 FB F4 3C 70 27 66 C8 30 07 33 60 5A 13 B3 1C 1E 1F B4 E1 8A E2 DE 0E EC 23 22 D7 ")
    (data "57 D2 4F CF 90 D1 06 7C 89 85 17 E4 25 EC 9C B9 84 6D 32 5A 49 BE D9 28 2F C2 57 D2 E0 F0 2D 0D ")
    (data "0D 25 C8 80 EF 00 13 88 FE 72 CA D1 A2 7F 07 FC 15 33 84 F8 20 28 1B 83 A5 B1 DF 06 38 04 9B 18 ")
    (data "A2 5E D6 2C B0 81 88 6C 52 E5 8E E1 00 E0 B3 C4 0B A4 12 B6 A2 ED C4 4C EC 5F C6 26 87 36 2C 78 ")
    (data "E8 E6 D8 E0 89 3B AB 18 05 9C 8B A9 85 06 95 E0 4C E5 BB C4 0B B1 B9 98 61 C7 53 55 3C AE 1D 77 ")
    (data "34 FB 30 32 54 7F 26 59 6B 32 D8 6F 5E EE D7 DC E0 DF BB 30 4B DA FF 61 E3 70 39 CC 20 67 22 F6 ")
    (data "DE C6 09 B5 0E E0 47 98 F9 7B 5A 2E 27 7A AC 76 61 02 6C 6F 55 7D D9 75 93 88 7C 0E B8 1E EB BB ")
    (data "EB 0C BB 03 3B F0 5F A3 82 7E 36 1A 79 E6 1B 77 25 25 4B 6D CE FF 6B 49 59 48 81 CD B5 79 E0 55 ")
    (data "6C CC FE 1B B3 6E 5C 12 53 95 EF 0A 8C 25 D9 E6 63 71 6C 01 74 47 25 9D 8A B5 2E A9 D2 02 A6 66 ")
    (data "56 8B D8 4A EF 6D C2 4D 3C 4B D8 A4 76 3C D0 9A A0 AD 36 E0 5A E2 AD E9 8A C0 2F AA F8 FC A3 B1 ")
    (data "1F 36 89 D5 D9 43 C0 67 23 DA 12 60 7B E0 35 E2 AD 1D 3B 81 F1 29 FA 59 B5 D5 22 70 51 82 EF B3 ")
    (data "1C 71 7E BD 2A C7 55 07 E6 6F 97 E6 7A 26 A6 6F 43 61 B5 58 BE 0A C1 38 39 10 68 8A 68 6F 45 E0 ")
    (data "6F 09 BE E7 F2 18 58 31 65 7F 57 0B EA B9 DA CC 03 8F 44 F5 71 40 7B 63 B0 49 AE 14 D1 E6 5C 60 ")
    (data "D3 5A 7E EF C3 F1 02 56 48 39 5E BF 44 BC A5 E8 50 58 2D F6 9F B3 FE 0A AC 16 D3 DE AE C1 3B 5F ")
    (data "4C D0 E6 BD 15 F6 39 51 87 BB AA B8 7A 88 37 8D 4F 6C 7E 0F 2C 01 3C 3C E0 45 2E 61 0E CE A9 4C ")
    (data "D0 31 C1 70 0B F1 BE 0F EF 57 31 28 7E 44 F4 C4 50 9E 70 4E 4D D1 66 1B B6 FA 71 09 B3 9E E0 FB ")
    (data "D9 31 45 9B 55 09 32 EC AC 23 C9 A2 60 16 B0 CE 60 4D 1E 03 FA F8 78 4C FF 86 4A 90 95 B0 0C BF ")
    (data "2B 25 6C 33 8B 1D B4 C7 8D DB 39 C0 BE 29 FB 7B 5C CC FB DA 45 4A 13 7F 4C 35 1F E5 52 50 00 2E ")
    (data "1E 8A 31 31 9C 2F 4C 7B 34 5C 05 D9 3C E0 94 14 6D AE 11 33 06 FA CF 85 A9 7D 79 93 EA 2F DB AA ")
    (data "B8 5A A8 E1 D6 58 2D E1 DC 17 81 DF 33 5F AD D4 8D 9D B5 3C 97 B2 2D 05 BE 47 FC E1 74 7B 25 46 ")
    (data "1F 22 92 C5 4C CF A3 D4 97 9D C0 15 AA 3A 25 69 BB AA DA 0D EC CC 7C BF 94 32 05 EC BB B8 06 58 ")
    (data "59 55 6F 4F DB E7 B4 04 61 68 7E 8E A9 7D A3 D4 89 65 E7 DD 4D 54 F5 F9 7A F7 AB C1 E8 01 76 D2 ")
    (data "84 D1 65 54 B5 08 EC 87 9D 9F 45 31 1A DB C1 A7 61 2F A2 DF D7 57 35 42 9D 18 86 AA 3E 48 B4 0A ")
    (data "38 8B A9 94 3C 8D 41 09 78 50 55 CF 48 5A 41 2D 0A D1 71 98 00 8C A2 40 05 11 7B 1A CE 6A 11 40 ")
    (data "55 0B AA 7A 10 A6 46 2C 02 87 AA EA B3 15 B6 F5 0E 10 67 6C 90 C7 54 3A 69 D9 86 F8 73 C8 59 D8 ")
    (data "0F 9C 0A 55 ED C1 7C 30 CA AB E7 2E 6C 9B BF 9E AA 7E 57 55 DF 4F DB 66 85 5C 8C 4D AA 71 42 6C ")
    (data "16 30 49 55 5F 18 94 5E 35 16 CF 6B 4A 83 17 35 43 9E 5F 12 2F CC 36 4E D9 97 B8 71 FE 8F 94 ED ")
    (data "95 79 26 A6 7C 85 C0 28 CA 33 FC 99 87 45 24 4A CB AF 12 DC 93 C1 7C 79 53 D1 90 82 AC 8C AA 5E ")
    (data "02 AC A5 AA D7 54 D9 D4 DD B8 D3 89 83 7D 4F E3 2A 68 77 77 A2 0F 39 E7 01 67 6A 85 B1 FD 54 F5 ")
    (data "31 EC 70 F5 09 CC 70 62 A7 B4 AB E5 6A 08 FC C4 BE 43 B4 10 2B 62 71 01 27 A9 EA 4B 83 D1 AF 06 ")
    (data "43 31 C3 9E 4A B8 09 5B C8 44 91 38 68 6B 20 48 C6 C4 DC F6 5E D2 F6 06 10 B7 B0 CA E0 53 BC 34 ")
    (data "0A ED C4 2F FE 17 22 58 7C 2F 14 A3 71 00 2D 58 5C D1 54 34 9A D5 E2 42 A8 EA CC 1A 34 F3 0E 76 ")
    (data "8E E1 FA 3E 9A 81 4A 1C 4C BF 42 F4 62 A1 09 9B 8C AA 61 3B 55 FD 5F 95 6D A4 46 44 4E 23 DE 4F ")
    (data "AC 88 59 DD 4D 52 D5 D7 06 A3 5F 0D 48 1E 1B 7F 95 F0 24 F1 93 7F 1A C7 FB C5 B0 DF 2C 6A 5E 28 ")
    (data "A6 68 AF 3F 71 EA FB 22 A6 D2 8C 53 3D 79 86 9E BE 4A 17 DF D8 A2 6D 1B DC 56 B1 4D 54 B0 69 68 ")
    (data "E8 1D 59 0D E9 24 FA 05 CD 90 D2 FF 4B 44 C6 62 86 29 51 7C A0 AA 1F A6 69 77 20 43 24 C4 8E C5 ")
    (data "FC 8C A2 26 D1 02 E6 F6 F0 79 2F C4 EA 83 AA 76 11 AD 49 00 68 12 91 A4 0B D6 02 6E 9F AF 32 95 ")
    (data "2E 7E E3 DE 9F 26 6C E7 EE 19 FE 68 FC 2D 4E DE 21 5E 1D EE 05 D9 30 E2 33 C4 AB 7D DE 1E 8C 8E ")
    (data "D4 12 11 99 0C 9C 46 BC 10 7B 1F 13 62 AF 0F 46 BF 46 30 71 7E 74 8A 19 53 24 A1 9B 78 41 F6 A9 ")
    (data "84 6D 0D 24 6E 72 9A AB AA 49 22 82 78 1A 9B D9 C4 EF CE 93 8E D7 4F 48 BA BA AA 54 2F 0E B6 D2 ")
    (data "6A 61 10 F5 DF 22 32 0E CB 45 B6 12 A6 CF ED C0 76 47 AE ED EC EA C4 BF C0 69 59 91 F8 85 42 55 ")
    (data "BB B1 21 E0 6B C0 AA C4 87 A6 11 CC 6C 78 B0 0C 4E 46 32 35 9B FC 55 B5 28 22 6F 01 9F 8E B8 6D ")
    (data "D3 0A 9B 8F 3B C0 7F 23 A6 DC B3 68 50 F6 25 AB 29 49 04 99 AA EA B2 95 3E 40 44 26 51 A1 A7 76 ")
    (data "8A 67 2C 8D 39 DD 7D 1B 4B F4 97 C5 4C 9A B3 D8 F9 56 8E 0A A4 7C 95 2C 4F BC DB 41 DC 16 7B B8 ")
    (data "91 44 88 81 7D D7 2B 02 3F 03 0E AD 6B 8F 3C B5 E6 5E CC 80 C7 F5 BE 2C 23 22 5F 50 D5 47 92 36 ")
    (data "28 22 DB 13 AD 5A EC C1 22 F1 78 3C 15 D1 D0 AA 45 11 59 55 44 6E C3 56 73 3F C5 56 8B 1D 98 00 ")
    (data "19 8B F9 D1 B4 30 F8 42 0C CC FA 6B 51 8B EC 9D 26 48 68 3B B0 AF 88 B8 E2 08 7A 86 27 BF C1 5C ")
    (data "39 5C B4 03 37 26 8D AE 1F DC F7 6B A2 8D 4E 4A 58 62 46 8F A7 22 1A 52 90 05 79 92 7E 02 3C 0B ")
    (data "6C 87 09 AE E1 66 BA 5B CB 34 2D 8D 4A 3B F0 1B 11 A9 C4 07 CF 33 34 3C 00 FC 37 A2 5C 30 0B DE ")
    (data "19 22 B2 A7 CB 90 24 78 47 77 C6 62 32 46 19 3D 15 81 27 BC 6B 86 A7 1A 1A CE FC 3E 48 C0 76 13 ")
    (data "B0 25 C3 2F 00 6C 7F 46 C2 C1 75 D9 D0 20 6A 11 D1 06 DC 2A 22 9F 55 D5 38 0B 3B CF 10 A3 AA 2A ")
    (data "22 87 63 3B 24 D7 EF DA 8C F9 FA 5C 01 FC 52 44 9E C1 A2 DF BF 8F 99 CF AF 8B 69 47 9A 88 0F 70 ")
    (data "DD CB 10 04 B7 F6 2C 5A 34 9C 20 C3 84 D8 D6 0C 6F 21 06 8B BE 3F 4C 27 F0 47 60 59 2C 64 98 2B ")
    (data "C7 5A 0E 3B 5B 3B 07 8B 3B E8 19 E6 A8 EA 5D 22 72 03 B0 27 D1 EF 59 59 48 4D 0A AE 22 E9 D4 F8 ")
    (data "9D C0 54 BF 1B F3 54 4B 43 09 32 11 D9 13 D8 82 78 21 56 0E A6 DA 09 BC 82 AD 16 BB 30 D3 CF 30 ")
    (data "56 C7 02 9B D6 32 95 FB 47 A4 CF 25 D6 28 74 02 57 03 93 B1 74 0D 2F 12 AD 3E EA 00 0E 15 91 BB ")
    (data "54 F5 CE 41 E8 9F A7 7A BE 8F 65 9B D8 80 E4 8B C6 B4 42 EC 6A 55 3D 33 6D C7 3C 9E 81 34 94 20 ")
    (data "03 7E 4C F4 D9 53 39 E6 E0 34 E0 F2 A4 8E B8 22 B2 17 95 9B 15 BB 78 9B 78 41 36 DC CE F5 92 D0 ")
    (data "09 FC 4C 55 4F 0A FE FF 43 11 F9 26 F0 27 A2 8D 41 DA 81 EB 45 64 AD 20 BE A5 67 18 A3 AA 3D 22 ")
    (data "B2 0D F6 BB 7E 81 DA 8D 55 C5 FC D5 2E 01 4E A8 51 9B 9E 11 4E C3 18 7B 04 59 6B E3 9C 2A 3B 81 ")
    (data "2F A8 EA 09 C3 20 9A C4 2B 09 EE 49 1D 53 6C 88 E9 02 A6 F4 13 62 00 A8 EA DF 80 AB 88 B6 76 03 ")
    (data "13 66 7F 0C 32 7D 7B 86 39 41 E4 90 ED B0 00 B1 5D D8 C2 AC 1A E6 62 19 1B BE A4 AA C7 07 D9 27 ")
    (data "3C 9E AA 69 A4 09 65 67 A2 CD D9 BB 31 7D FB BF 06 A9 3F 71 3C 4F BC 4A 66 E5 C1 E8 48 8D E8 C1 ")
    (data "72 46 9D E7 28 3F 06 78 93 68 23 97 26 CC 10 E0 B4 DA 76 CD 53 47 3E 8F 39 48 97 D5 F5 69 28 61 ")
    (data "8E F1 3D C0 63 58 96 84 4F AB EA A3 35 ED A1 67 C4 D3 48 AA C5 D5 71 1B 14 80 AD 16 EF 19 A4 BE ")
    (data "C4 A2 AA BD 22 F2 1A D6 6F 17 4D 22 B2 7A B5 87 DD 22 72 0C 70 47 9D F3 7C 95 B0 CC D4 A1 A8 6A ")
    (data "9F 88 EC 42 7C 20 DB 0E E0 68 11 F9 9B AA FE BD C6 7D F4 D4 08 11 99 80 65 50 DF 00 73 6F 29 9F ")
    (data "7F F5 61 21 C8 FE 8A C5 D2 DC 08 18 8F FD AE 4D D8 82 72 0E 16 B5 E6 31 E0 3E E0 61 AF 4E F6 D4 ")
    (data "93 46 12 64 13 62 CA 33 D8 0B 54 09 CD D4 67 77 7A 33 66 A9 E7 DA 49 E6 80 43 A8 C2 9A 4F 44 56 ")
    (data "06 CE 00 4E 17 91 2B 80 93 55 75 48 2C 26 55 F5 45 11 39 1A F8 09 D1 C2 AC 1D B8 59 44 D6 AC 36 ")
    (data "68 B2 A7 F6 88 C8 BA C0 83 D8 6F D8 7F 8E E8 C4 D2 70 1C A8 AA EF 0E 45 DF 3C 9E 30 1A 49 B5 98 ")
    (data "24 4A 46 A5 9F 67 2D D2 45 AD 48 CA 0D 44 87 A1 6A 01 0E 16 91 8A 43 80 61 BE 3C 19 4C 8D 79 30 ")
    (data "F0 1F 11 D9 BD 8A F6 AA 42 55 2F C7 9C 6A E3 CE 53 46 03 7F F0 C9 14 87 17 22 D2 0C DC 86 45 A6 ")
    (data "19 B8 D0 9D 01 EC EC 85 98 67 B8 D1 48 82 2C 2E 52 7C 89 0A 22 73 07 0E D6 07 50 87 EF 42 55 9F ")
    (data "02 E2 5E FA 16 6C 77 92 7A 77 2C 22 67 60 FE 3B 65 95 6B 1B 66 0E FF 2B 11 79 48 44 A2 D4 9A F5 ")
    (data "64 1F E2 FD E8 9A 81 CF 62 59 BE 3D C3 87 AF 62 C9 38 07 2E 30 FA 80 DF AB 6A A5 F9 C8 3C 9E BA ")
    (data "D1 48 82 EC 55 A2 73 86 8D 06 F6 4D D3 60 B0 1B B8 9C FA 9A C1 4F 21 7A 52 6F 02 D6 07 A6 07 39 ")
    (data "CC 62 11 91 66 11 B9 14 F8 01 E1 7D EF C0 04 DC 3F 44 24 2E 70 71 CD 51 D5 8F B0 EC D8 71 56 8C ")
    (data "1D C0 29 22 B2 71 FD 7B E5 49 C8 97 09 F7 A7 6C 06 76 A9 64 C1 E5 F1 D4 9B 46 1A 94 F7 02 87 63 ")
    (data "59 6C C3 C8 02 BB 89 C8 9D AA FA DB B8 C6 02 75 DE 2F 80 AD 48 A6 56 1C 2F 22 13 07 FC ED 39 55 ")
    (data "8D 53 A1 5D 07 9C 49 B4 FF 5B 3B 30 11 78 5D 44 CE 02 AE 51 D5 85 E2 DD 89 48 3B F0 75 E0 6C 2C ")
    (data "28 72 94 00 EE 05 7E 1E A4 17 1F 74 54 F5 3E 11 B9 0C 8B 7E 1F F5 FD B6 01 7F 0A CE CB 3E 4E DA ")
    (data "BE 88 2C 0F 6C 92 B2 5B 71 89 4E C1 26 EB B8 1C 5F FD B9 A5 8A 6C B9 C3 91 28 AD C6 44 E0 6D 11 ")
    (data "B9 0B 78 1C 3B 93 8E 5B AC 80 59 2D CE 65 BE 11 C8 5B 23 31 F7 58 90 05 60 4C 8A 2A CB 25 B8 67 ")
    (data "F1 94 47 09 2F AA EA B3 29 EE 6F 08 1A 49 90 3D 44 FC 39 59 3B 70 B9 88 1C 00 5C 04 3C A2 AA 9F ")
    (data "E4 52 13 91 4F 61 2F E3 3E C0 4E D8 E7 8F B2 84 2C 93 C3 D4 8F 07 0C 78 D6 DA C0 CC A8 8A 41 8E ")
    (data "A7 FD 80 DB 89 9E D0 5B 83 EB 14 E0 34 11 F9 1F 66 CE FE 41 D0 C7 F1 58 A8 A7 3E 92 45 20 E9 C5 ")
    (data "04 DE 50 72 02 B6 C2 5F 03 77 D4 07 C1 84 F2 75 C0 8E 29 DA DE 18 8B 2E 92 46 50 C7 8D 77 05 2E ")
    (data "48 D1 DE 18 4C 38 2E 4A 82 EC D5 88 B2 8E E0 FA 16 F0 0D EC 73 2B D1 9A 12 30 CD 4F D9 74 BF 09 ")
    (data "C8 89 C8 4C EC 2C F5 B7 AA FA 70 55 3D 6E 1C AE C0 C6 7A 1A F5 6C DC 9C B7 24 A6 55 4A 42 2B 70 ")
    (data "29 8B 60 A8 B8 86 11 64 AA 9A 0F 56 F8 DF 23 DA 3F AB 1D 0B 28 3C 11 68 16 91 26 6C 52 6F C3 26 ")
    (data "BD B2 20 E8 AF 56 9D 87 45 FC 5E 99 F0 EF 24 C3 C2 2B A9 B9 29 FA 7E 7F 60 51 F8 5D E2 D5 98 E5 ")
    (data "F2 E5 83 6B 20 49 42 5E 75 01 7B A9 6A A5 56 9C 35 21 F8 CD 76 05 9E 22 FA 73 B7 00 5F 14 91 C3 ")
    (data "54 F5 E2 14 8F E8 C3 CE 73 6A 45 79 31 91 E6 F9 8B 1A 4F 63 D6 89 71 E3 34 ED 77 35 90 75 31 23 ")
    (data "AB 6F 89 C8 1C 4C 05 7F E5 22 EE 24 9D 25 DD 8E 2C 09 69 C3 EA 2D 92 C6 55 8D 74 46 06 70 3A C9 ")
    (data "56 BF 82 0D 98 B2 FF 4B 7B F0 B7 36 4C 35 39 F0 73 7F 08 1C 44 BA D5 7D 5A 8E 01 1E 21 99 2A A6 ")
    (data "1A CA 21 A4 FE 5A E7 E7 24 42 55 67 02 47 30 3F 52 BE 8B 0E 60 AA 88 6C 50 FF 5E 79 22 B8 99 C1 ")
    (data "CB DC 90 C5 26 E2 E5 B1 9D F0 13 22 B2 D2 20 3D DB B3 08 D1 50 82 4C 55 67 03 7B 51 5B 61 D0 05 ")
    (data "EC A3 AA 0F 60 61 A5 EA B2 22 0C AC BD BE 82 F9 E7 A4 39 83 49 43 27 F0 0B 55 FD 61 9D DA AF 08 ")
    (data "55 BD 0A 73 8C 8D 3B 4F 6C 03 FE 2C 22 3E 97 DB 10 11 9C 53 7E 8B FA 8D 51 17 A3 30 A3 A7 C7 02 ")
    (data "67 6C 8F 27 31 0D 25 C8 00 54 F5 76 CC E8 A3 16 C2 AC 0B 38 B8 9F 8E 7E 6F 4C CD 58 2F 61 D6 07 ")
    (data "EC 80 05 35 EE AA E1 73 CA C1 92 8F 55 D5 1F D4 A8 CD 5A B3 1F F1 0E EB 42 E0 3E 50 FF EE 78 5C ")
    (data "A8 EA AD D8 19 F2 7B 0C AE 40 CB 62 67 8E 0F 06 6E 31 1E 4F 22 1A 4E 90 C1 27 2B FC ED 31 43 88 ")
    (data "4A 04 5A 0F 36 A9 7E 4D 55 AF ED D7 EE 0C 2C D7 D9 7B D4 29 9F 98 AA 96 54 F5 04 2C 1D CD 8C 2A ")
    (data "9F 53 4E 55 F3 18 16 2C F9 D2 1A 74 B1 2E A8 EA 2C CC 40 20 EE F7 6A 03 76 08 0C 76 3C 43 C7 3F ")
    (data "81 A9 0C FE 1C 91 C3 CE 3D BD 7F A1 27 31 49 06 69 2D 76 0D 71 FE 51 DD 69 1B 54 D5 07 81 55 B0 ")
    (data "00 B4 1F 62 82 29 4A 75 55 0E 60 DA 89 59 F9 7C 5A 55 EF 0A 69 F7 09 60 25 CC 47 6B 3A F0 3F C2 ")
    (data "CF E5 AA CA 5D A6 AA 4F A8 EA BA 98 39 FD DD 98 70 9D 4D BC 45 53 21 B8 AF 07 8B C0 B0 B3 AA 7E ")
    (data "A1 06 26 B5 FF 26 DA 90 A4 EA C8 27 41 6C C5 69 09 6E ED 00 A6 89 C8 5A 31 F7 B9 5C 31 06 8B 24 ")
    (data "16 AF 71 F7 25 6D C3 45 9C BA 36 4D 8E 30 44 A4 45 44 4E C7 8C 9F 7E CC 82 86 55 8A BD 43 69 AF ")
    (data "B2 91 55 52 3A 80 E3 02 43 AD 45 89 21 71 85 19 40 12 8B C9 B8 DF AA DA 4C EF 71 F2 20 B5 11 95 ")
    (data "2C 0A 46 42 22 92 C5 A2 74 6F 81 ED A8 96 C3 BE AC 66 CC BA F0 3D CC D0 E2 7E E0 AE 04 BE 5F 83 ")
    (data "8E 88 8C C6 92 7B 6E 8E 05 6A 5D 19 3B 37 68 66 7E 20 D6 77 B1 33 B6 27 80 BF AB 6A 62 CB 49 8F ")
    (data "27 0E 11 59 02 F3 D7 5C 8D 85 17 2E 9D C0 1B C0 CF A8 6C 71 BB 24 16 40 7B 53 CC 95 A4 99 68 21 ")
    (data "3B 1B F8 46 90 22 C8 E3 89 64 91 10 64 1E 8F A7 3A 82 C5 E0 83 58 34 FB 81 BB C4 5E CC 8F 73 7B ")
    (data "55 AD 76 35 8E 88 AC 0D DC 88 F9 45 BA 76 A4 25 E0 6C 55 3D B9 DA E7 79 16 7D 1A F2 8C CC E3 F1 ")
    (data "D4 9C DD 31 DF AE 30 C1 52 02 F6 AD 85 10 83 4F CE A2 B7 22 DA CC 3F 83 E5 41 F3 78 62 F1 82 CC ")
    (data "E3 F1 80 9D 09 BB DC 1E FE 1B 16 32 AD 1A 54 F5 7D EC 5C 36 8A B8 8C F0 1E 0F E0 05 99 C7 E3 31 ")
    (data "A2 1C D1 EB 75 16 1B 67 88 32 D8 BE 6C 9E 06 C5 0B 32 8F 67 84 13 38 A0 47 85 2E 5A 2D C8 53 56 ")
    (data "CB 67 8E C5 CE C8 5C 94 88 89 63 EA F1 94 F1 82 CC E3 F1 F4 12 3D 17 28 16 1E AE 26 04 86 25 57 ")
    (data "C7 DC 36 0F F3 8F F4 78 62 F1 82 CC E3 19 E1 04 69 68 A2 D4 78 A3 80 C9 22 72 95 88 2C 55 CD B3 ")
    (data "44 64 4B E0 49 E0 4B 44 07 FF 6E 02 EE AC E6 59 9E 91 83 37 BF F7 78 3C 88 C8 ED 58 CA 9D 28 15 ")
    (data "63 D9 A1 F7 9F 58 B0 80 57 88 3F 3F 1B 03 AC 80 9D C1 7D 11 13 50 1D 31 CF E9 C5 D2 BB 1C 14 DB ")
    (data "71 8F 07 2F C8 3C 1E 0F 20 22 3B 00 37 10 9D 00 B6 3F 25 2C DC 58 11 B7 19 7D 16 D3 FA B4 91 2E ")
    (data "C2 C8 2C 60 35 55 FD 5F 8A 3A 9E 11 8C 17 64 1E 8F 07 11 11 2C F9 EB 96 54 97 67 AC 1A CA C1 AF ")
    (data "B7 51 D5 47 87 A8 0F 9E 06 C4 0B 32 8F C7 03 80 88 2C 86 19 58 AC 40 0D 62 6B A6 A4 07 3B A7 DB ")
    (data "41 55 FF 31 C8 CF F6 34 38 DE D8 C3 E3 F1 00 9F E4 FB 5B 1F F8 1D B6 33 AA 49 24 8F 18 BA 83 EB ")
    (data "77 C0 AA 5E 88 79 2A C1 EF C8 3C 1E CF 42 88 C8 3A C0 09 58 EA 9D 5E EC EC 2C 55 24 FD 08 CA B9 ")
    (data "F8 7A 80 4B 80 69 AA FA 41 8D DA F6 8C 40 BC 20 F3 78 3C 4E 02 67 E9 CD 80 6D 81 ED 80 15 31 B5 ")
    (data "63 37 66 E8 51 B6 3E 2C 1B 76 94 D3 84 94 FF 15 2C 3D 90 60 D9 1B 66 00 B7 02 F7 AA EA 4B 83 F0 ")
    (data "11 3C 23 00 2F C8 3C 1E 4F 2A 44 A4 0D CB D9 B7 1C 66 18 D2 81 59 26 B6 62 16 8C B3 B1 9C 52 9D ")
    (data "98 79 FE AB 7E C7 E5 A9 27 5E 90 79 3C 1E 8F A7 A1 C9 0D 75 07 3C 9E 34 04 96 75 9F AB 71 B3 DD ")
    (data "AA FA 50 8D DB 2C 87 62 DA AA D6 ED 62 6A B9 A8 14 28 8B 3C 22 B2 31 55 66 69 0F 61 46 AD A3 FC ")
    (data "0F 37 B6 FD CB 07 FB 8B B0 4C 58 99 A2 73 EE FE CA 32 97 3A 2B CF D8 E0 00 84 A5 43 CB 94 8F 59 ")
    (data "FB E9 CB 23 1E 7D 20 E0 8A 0A 33 0B B8 22 A2 2E 3D EF 6D F8 DD 8C EA 12 61 65 25 91 8F BC 20 F3 ")
    (data "34 1A 6B 01 B7 51 BB B4 F1 19 2C AE DF 72 35 6A AF 3F ED 58 98 A5 79 35 6C 73 34 A6 CA EB AE 61 ")
    (data "9B 8D C8 35 C0 A7 98 7F 16 57 2D 2D C0 A1 C0 AF 6B D4 DE B0 E3 CB B7 BD B3 79 56 F4 2A 1C 51 55 ")
    (data "54 F4 28 57 DD 79 CF AE BF B5 AA 5E E5 2A 57 D1 23 C6 38 9F 5C D8 06 E5 4A 67 B1 E8 61 16 F0 25 ")
    (data "9C DE F7 37 DC 56 E0 0A 95 F0 60 30 22 F2 7D 2F C8 3C 8D 48 17 30 B6 86 ED D5 53 28 14 B0 30 4D ")
    (data "B5 6C CF 63 C6 25 1D 35 6C AF 96 8B 8D 61 C7 56 D3 C9 B5 6B DF 34 71 85 06 13 66 BC 3B EE C3 69 ")
    (data "B0 FC C2 65 D3 B7 CA CD ED 28 5E A8 38 8F A1 9E 7F 27 D3 76 E9 C4 F0 B2 66 2D 15 2E 8E E8 DA 73 ")
    (data "22 AD 97 39 4B 67 AC DB CC 52 4D EE FA CA 53 2D E3 56 BD 22 27 22 63 80 CF 47 3C 28 2D 79 E0 C3 ")
    (data "F2 A5 AA B5 5A 31 79 3C 1E 8F A7 02 16 9B FB F2 61 2A B2 9E AB 5C 4B 1C F6 C4 C4 89 F9 B0 B2 7F ")
    (data "E7 DE 3D 82 3E FD 8C B3 71 95 C9 13 37 7B 22 B4 2E A5 B9 47 A2 B2 A6 B3 A6 32 99 8C 7B 71 D6 B7 ")
    (data "64 D3 D1 28 6B B8 EA AB CA 91 70 43 31 07 AC 46 6D 55 35 25 4C 5D 93 03 9A 44 E4 75 2C F4 CD B5 ")
    (data "AA FA 78 8D 9E E1 F1 78 3C 9E 04 EC 72 EB 73 E3 72 D2 F4 23 F7 86 8A EB 6F DA 69 8D 7B C3 0A 1E ")
    (data "BB 67 E5 71 99 4C F6 94 88 E6 AF FB DC 56 33 A7 87 17 7D B0 AC 96 9A 4E 72 55 54 E5 5A 69 1A 7B ")
    (data "BF AB BC FB ED F5 C7 67 72 99 1F BA CA 45 F8 4D CB 72 FF FC 3B CC 37 F6 E8 06 16 8B E8 6C 35 AC ")
    (data "0A 7C 1F 38 40 44 DE 06 8E 50 55 9F 9E C1 E3 F1 78 06 81 56 E4 5C A5 E0 52 C5 77 15 B3 99 E3 5D ")
    (data "75 3B 8B 9C 4F A1 E8 92 0D 73 C9 E7 8F 73 D5 2D E5 E5 02 A1 E0 52 AB CF CD E4 39 3E E2 68 0C C9 ")
    (data "65 7E 82 3B 88 F5 9C 42 26 7B 62 39 DB EB 60 9D 91 E5 82 0E AD 01 DC 24 22 F7 00 FB AA EA 9C 41 ")
    (data "7A BE C7 E3 F1 8C 38 F6 FA D3 D3 9B 64 85 7D 9D BB 31 D5 33 6E D8 69 C3 D7 C3 8A 6E BE 75 C2 A6 ")
    (data "19 61 1F 57 DB 2A 72 C6 D7 BE FA E6 DB A1 85 85 77 36 43 65 4F E7 26 50 99 22 ED CB 3A 2D 44 7B ")
    (data "DE 59 7F 73 C9 64 76 77 95 03 A7 B6 2F F5 C4 3B E5 FF 19 0A 63 8F 0E 2C 42 C0 53 22 B2 99 AA BE ")
    (data "13 57 C1 E3 19 C0 28 20 CD 22 A8 99 A1 8B E8 DE 44 BA BE E6 18 FC 80 BD 8D 48 D9 E1 3A E9 19 BC ")
    (data "50 7B 73 FD 61 CD 94 29 64 72 1B 16 2E C4 9D FB ED E5 C5 9B C7 FE 34 AC E0 C6 1B 25 DB 9B 59 7E ")
    (data "9A BA 2C 1C 61 E6 EC F6 B6 8B 1C ED 66 4B C5 E2 34 F7 73 E5 85 4C CB BB 17 C1 B2 8E EA 5B E5 7A ")
    (data "69 BB 84 D2 C2 F5 83 3F CC 18 B3 5C E1 92 FE 7F 1F 2A AB C5 56 2C C2 F6 03 22 B2 A1 AA C6 25 E7 ")
    (data "F3 78 CA 3C 05 CE C3 5F 17 CF D5 A3 23 09 E8 C4 54 EB 69 B8 0D 70 1D 8E 7B E6 B3 0D 66 32 9F 94 ")
    (data "63 31 F3 FA 11 C3 7F 36 78 EC D0 9C 6A 84 CF A5 1C 71 D1 0E AB F6 86 95 7C 90 5F F6 7B 48 71 83 ")
    (data "88 BA 87 1F F6 F5 99 A1 75 4B BD FF 99 8C B2 BE AB 66 49 F8 41 86 70 C3 12 80 F7 DF D4 C3 55 5A ")
    (data "3E E3 92 BE 25 91 C9 63 98 BE 40 FD A1 34 BF 6F C2 6C 3D 7F 09 44 6D 21 3D 9E 4F 50 D5 5E E0 D5 ")
    (data "34 75 44 64 48 C2 D7 04 4E CB 69 FB DA 57 A7 EE 2C 52 A8 6A B8 4A CB 81 88 CC AA 57 5F 86 23 07 ")
    (data "DD F8 C8 12 D9 E6 C2 E9 AE 72 41 FF F8 8B 5D BE 78 7B 58 D9 D9 BF 19 BF A4 68 E9 34 77 5D FE 70 ")
    (data "FC B7 DF FB 6B 68 E1 BC 57 96 21 AB CE BA C0 0D B9 D6 55 9D 36 12 AF BD B6 CD B8 6C B6 D9 61 98 ")
    (data "A2 A8 F2 BB 09 13 EE BE 6F 60 49 52 41 56 20 D9 16 3E 9B A2 4D B0 9D D9 0E 22 F2 45 55 FD 7B 8A ")
    (data "7A 1E 8F C7 E3 71 90 6B EE 99 AA CA 92 8E E2 EE 52 36 7B B4 AB 6E 67 6F EF 39 8A BA EB 16 8B C7 ")
    (data "BA EA 16 33 F9 73 50 A7 8F 67 57 36 A3 4E E3 10 80 3C 6D E7 E5 8B FD 0D 0F B5 FF 7F 75 35 69 E6 ")
    (data "84 B0 7A 49 85 4E 1F F0 83 98 7B 04 73 52 5D 16 F8 02 B0 5E D0 8B 38 7D 7F 3B 70 06 B0 45 C2 BE ")
    (data "78 3C 1E 8F C7 C1 F7 6F B9 6B 62 16 39 D0 7D 87 9C 73 C9 4E 5B BD 16 56 72 C4 A5 63 27 6A 49 F6 ")
    (data "8F 68 FE AC 8B FE 6F D6 7F C2 0A F2 5D CF 7F 2E A3 BA 9F F3 A9 C2 8F 69 5D 37 D4 B0 04 E0 B9 57 ")
    (data "76 DF A4 44 CB B7 EC FF 16 DE 92 89 E8 E9 6B AC 7C F3 1B 61 75 13 0B 32 55 8D 8C 85 B5 F0 43 65 ")
    (data "09 60 0A 70 00 D1 C2 4C 80 CF 8A C8 67 54 F5 5F 69 9E E1 F1 78 3C 9E F9 4C 99 32 25 93 5B EF F3 ")
    (data "D3 70 25 4D 16 DE E8 CD 15 CF 0B AF 2B 99 39 63 46 5F A2 EE BA AF C8 EC B9 E7 3B 1E 9D C9 68 61 ")
    (data "1A EA 4A D6 AC AF 64 3A C6 5E E0 EA F7 8D EC 91 9D 50 6C BA 84 01 06 22 E5 FF 51 F4 E5 25 32 B3 ")
    (data "2F 74 D5 AF DB 19 99 AA 7E 04 1C 26 22 AF 60 3B 2E 97 3F 00 98 55 D9 9E 80 17 64 1E 8F C7 53 21 ")
    (data "B3 D7 DF 68 FF 9C E6 27 B9 CA A5 C4 61 17 7D 75 E7 AE B0 B2 67 5A DB 0F 94 BE E2 C6 AE BA 9A E1 ")
    (data "C8 9B 4F D5 D0 C0 19 F9 79 4F 1E 2C EA 8E 10 25 CA 11 B0 92 33 E8 C6 B8 17 DA 0F ED 15 71 1A 97 ")
    (data "64 32 A5 C3 57 5D F5 F6 50 E3 12 18 04 63 0F 55 BD 50 44 0E 21 DA 12 2B 07 EC 08 38 BD C0 3D 1E ")
    (data "8F C7 E3 E6 C4 DB 6E 5B 3C 5B CA 9F ED BC 41 E4 AE F3 76 FB DA AD 61 45 5F 9D 2A 8B F7 E5 5B 7E ")
    (data "1C D1 FC 9F EF 3A A5 E7 2F A1 25 73 1E 59 42 C8 9C 11 51 F7 4F D9 31 1B DF E6 2A BC E7 DF 93 97 ")
    (data "2C 95 5A A7 44 D4 BF 79 DB 35 2F BB 23 A2 7C D0 AC 16 2F 05 A6 62 C9 F7 5C AC 2D 22 AD AA E1 12 ")
    (data "DF E3 F1 78 3C 11 F4 CE 3B 3D 87 84 A7 59 81 BE 52 41 0E 77 55 FD 70 5E F6 4C A4 18 5A 57 A1 97 ")
    (data "62 F6 18 57 DD A2 96 CE 82 92 2B 45 4B 6F 51 8A C7 46 09 9A AE 42 76 2A 9A 75 1A 97 A0 25 E7 B3 ")
    (data "CB 0C 96 20 7B 1C E8 25 5A 90 F5 00 13 80 17 AB 79 90 88 2C 83 39 5C 4F C4 82 21 8F 67 7E 06 5B ")
    (data "C5 7C 7B 66 03 6F 03 F7 01 0F 03 8F AA 6A 4D A3 5F 8B C8 58 20 34 7F 4E 05 FC 37 4E C0 8B 88 00 ")
    (data "4B E2 8E B4 FE 61 35 91 54 44 64 34 E6 BB F3 B9 E0 5A 15 FB 5E CB 11 C8 3B 31 C7 DF 0F 80 FB 81 ")
    (data "87 80 47 54 F5 C3 4A 9F E9 19 9E 04 63 ED F3 C0 96 98 91 D6 EA D8 D8 6B C6 8E 35 7A B1 A0 E1 33 ")
    (data "81 7B 80 E9 AA FA E4 90 74 76 84 70 D2 1F AF 59 37 AB 19 B7 9F 9C C8 F9 67 EF BE 77 E8 DC BA D6 ")
    (data "09 F2 99 8C CA C1 AE AA 8A 9C 3B E3 9C FC 4B 61 65 F9 D9 0F 6C 24 5A 3A C8 DD 33 9D DA B2 D8 96 ")
    (data "33 5D A5 37 FE F3 98 89 64 5A 0E 70 57 67 EA EE 1B 9E 1B 6A 98 D2 9F C1 12 64 1F 62 A6 F9 51 94 ")
    (data "B0 C4 6B A9 05 99 88 B4 00 DF 06 8E 00 56 C6 22 F0 8F 22 DC B3 BC 03 58 06 0B 96 BC 29 96 12 A4 ")
    (data "59 44 6E 02 7E A2 AA 4F A7 7D BE 83 83 B1 B3 41 A7 E3 5F 42 5A B0 C9 E2 E1 81 05 22 B2 0E F0 5D ")
    (data "60 07 4C B0 F4 62 6E 12 03 3F 77 33 70 24 F0 F3 34 0F 16 91 0C B0 33 70 1C B0 51 D0 FE 28 C2 0F ")
    (data "83 DB 81 A5 81 55 B0 49 EE 50 A0 45 44 A6 03 E7 62 93 99 4F 47 DE C0 88 C8 92 98 F5 F2 21 D8 B8 ")
    (data "6C 26 DC 29 B9 0D B3 60 5E 15 4B 2C 5A 10 91 B9 C0 C5 C0 34 1F 00 A1 B6 08 C8 69 5A 9C A6 94 5C ")
    (data "F3 F9 5B 52 6C 0F 55 39 8A 88 AC 76 54 76 5A 11 75 D5 7D B3 2D 53 3A C7 F9 E8 62 DF 34 75 CF ED ")
    (data "6F 34 E5 C3 0D 4B 00 A6 30 25 B3 B2 45 F0 C8 04 9F 63 00 FA 6A 61 4E D3 B9 AE FA FD 19 2C 41 D6 ")
    (data "87 3B 4C 4A 99 F2 8E 22 31 C1 CA F0 10 4C 0D 11 BE 2E 00 00 19 48 49 44 41 54 6D 99 65 BE 41 49 ")
    (data "D2 70 44 4D CC 0F 96 BC 17 F0 35 11 B9 0B 38 40 55 3F 4E D3 17 57 17 A9 3E 67 D2 42 FD 10 91 55 ")
    (data "80 5F 61 BB CE 16 E6 0F 24 D7 8E 37 75 BE 2D 11 D9 01 CB DA BA 18 F3 43 FB 24 8D A4 90 61 FE F7 ")
    (data "BA 3D B6 60 78 51 44 76 57 D5 FF A4 ED 8B 67 68 11 91 26 E0 44 E0 04 6C 4C A7 09 F7 55 BE 77 14 ")
    (data "70 32 70 A2 88 1C 0F 5C 3E D2 B3 5C D7 8A D3 6F BA 72 1F 54 9C EE 4B 0A 47 FD 68 F7 DD 43 35 4E ")
    (data "AB 1C D1 B4 6F A9 C8 17 9D 75 45 8E 7C E6 27 BD 9D 61 65 F9 8F EE FC 0E CA 17 DC CF 95 23 18 B7 ")
    (data "5D 68 5D 80 F1 8F 67 0E E8 95 16 A7 71 89 20 47 1E B8 E5 49 89 8E 9A 86 53 62 CD 0C 29 62 A1 89 ")
    (data "C8 B2 C0 5F B0 70 45 51 16 91 49 29 27 EA DB 11 98 29 22 BB AA EA 43 35 68 B7 A6 88 C8 B7 81 4B ")
    (data "B0 09 22 6E 97 5B 49 FB ED C0 6F 31 F5 6C 2D 12 17 96 63 DC 6D 08 FC 4B 44 0E 51 D5 EB 6A D0 AE ")
    (data "67 10 10 91 95 B0 2C D7 CB 13 7D 34 90 84 B2 1B CE B9 C0 B7 44 64 17 AF 7A AE 8E 73 6F FD E5 E8 ")
    (data "AC 96 CE 09 F3 BB 02 10 B8 F7 C4 6F 1C 72 63 58 D9 9A C7 CB E8 52 A9 75 6A 44 F3 7F 7B F5 A2 EE ")
    (data "9B 43 4B 3E BA 63 8C 96 4A 3F 76 EE 4E 94 BB 9B 97 FE CA 2D AE E2 4B 1F 9C BA 78 B1 B9 F5 2C DC ")
    (data "4B 99 BB 26 6F 7C EC 9F 23 FA B6 00 83 29 C8 E2 76 64 25 42 76 1F A1 0D 89 AC 05 4C 07 16 27 2A ")
    (data "47 76 65 B4 04 D7 9D 22 B2 FD 70 12 66 22 72 24 F0 63 EA 14 54 56 44 96 C6 BE D7 4F 53 FD A4 35 ")
    (data "90 F2 8E F9 17 22 D2 A3 AA E1 2F 88 67 D8 20 22 1B 01 F7 62 BF 5B 2D 17 4D A3 80 CF 02 CF 88 C8 ")
    (data "24 55 7D B3 86 6D 8F 2C 7A BA 4F CD 89 7E CA 51 5A 50 3B 52 08 A5 77 5E C7 14 60 B9 D0 42 A1 0F ")
    (data "C9 1C E6 AA 9B 2F F6 9D 01 2C E7 88 24 D5 A7 19 71 D6 05 E8 92 F6 33 B4 80 D3 30 25 53 2A 44 D6 ")
    (data "1F C8 60 09 B2 51 C4 87 B8 52 E0 7F 71 0D 05 3B B1 E9 D8 79 4C 9C 70 AC 86 0E E0 2F 22 B2 F6 70 ")
    (data "88 D0 2F 22 DB 51 5F 21 D6 86 4D 5A AB 51 FB C5 41 7F DA 81 6B 44 E4 BD E1 B4 48 F0 2C 48 70 FE ")
    (data "3A 1D F7 59 73 B5 34 63 67 D5 8F 8A C8 FA 7E 67 96 9E 0B AF BF 70 AD 6C 06 A7 25 22 2A 3F 3B 7A ")
    (data "8F 23 42 7D 73 27 1C 3A 7A 6D C8 4C 76 D7 E5 C2 D7 2F 9F F3 EF B0 A2 BE 77 6F 5A 87 0C DF 8B A8 ")
    (data "7B 41 CB 52 5F 77 DA 3A 9C F5 F0 65 EB 96 B4 E5 90 85 37 91 8A 00 0A E7 9D BC D9 E1 A1 C6 25 2E ")
    (data "06 4B 90 2D 07 11 9B 48 23 8B 19 85 C4 F1 47 6C 27 96 E4 E5 EA C6 0C 14 24 B8 4A CC CF 8D 96 84 ")
    (data "76 EC 9C 68 A7 84 F7 D7 8B 31 C0 EF A8 6F 7A 8F 4B 30 43 8D 24 42 AC 0F 33 92 01 53 09 97 B3 82 ")
    (data "8F 26 D9 EF D2 0E FC 5E 44 56 51 55 1F 24 77 98 21 22 8B 03 77 93 5C 88 CD C3 C6 40 59 DD DD 8B ")
    (data "C5 67 75 59 D0 96 C9 61 06 5E B7 89 C8 17 FC 99 59 3A 44 0A 3F CD A9 EB 7D D5 F7 7A A4 E4 F4 ED ")
    (data "2A 95 72 17 E3 7A D7 55 DF 6D 6D CB 3A 7D CA 44 0A D3 D4 F5 5C 91 B7 9A 33 E2 AE 0B 72 72 A1 75 ")
    (data "9A 2A B9 F9 03 6B 01 89 F6 66 4F 6F CE ED 0B E7 60 B0 04 D9 E6 C4 9F B7 E4 80 48 33 4B 11 F9 1A ")
    (data "16 C3 31 6A B2 2D 1F 0E 3E 00 FC 09 78 1E 53 59 E6 31 01 B8 3A 76 0E B6 23 F6 D2 35 87 B4 51 A6 ")
    (data "19 D8 5A 44 D6 53 D5 67 63 FA 1F 46 01 88 B3 D0 92 A0 5F 51 9C 44 BA 94 15 A9 10 91 F5 31 63 97 ")
    (data "A8 43 FC 22 26 C0 66 00 37 00 4F 63 3B E8 2E CC 42 6D 25 60 6B 2C 42 4B 86 78 A1 3B 16 F8 0E B6 ")
    (data "50 F0 0C 2F 2E C3 5C 47 A2 84 58 11 13 58 0F 03 D7 62 E9 75 3E C2 C6 C4 62 98 81 CF 77 30 AB C5 ")
    (data "56 5C 61 8F EC 1D 5B 07 53 81 39 43 18 79 16 E4 92 1B CE DA 23 8B 6C EF BE 43 8F 39 7E F7 1F CE ")
    (data "0E 2B 59 FE A0 A5 F7 44 B3 5B BB AB CA 51 33 2F FA 20 D4 55 A7 EF 9D EB F6 41 74 CB 88 AE 1D C3 ")
    (data "32 FB 38 5D 99 8E BD EF BA 7D 7B 68 D9 C2 75 A6 A7 A2 47 9D BF DD 3E 4E 03 11 17 82 59 BE DD 03 ")
    (data "B8 D2 59 03 7C AC AA 71 93 6D F8 03 44 9A 31 9F 2D 97 C3 5C 99 87 54 75 B3 98 B6 36 01 6E C7 AD ")
    (data "B3 EF 02 AE 01 7E A4 AA EF C7 B4 35 0E B8 1E D3 D5 47 09 D9 22 70 89 AA 1E 11 D5 5E 48 FB 13 30 ")
    (data "35 5D 1C 47 00 5F 8D 28 FF 18 FB 6D 5C 93 4A 2F 26 A4 A3 26 9D 1C 70 94 AA 86 9A DF 8B C8 EA D8 ")
    (data "18 58 9A 70 81 D9 09 FC 03 F8 BE AA BE 10 F1 9C B2 B1 C8 45 98 40 8B 5B BC 3C A7 AA 9F 89 B9 A7 ")
    (data "6A 44 A4 93 68 C1 FA 81 AA 2E 53 EF 7E 24 41 44 9E C1 16 6B 2E 0A C0 18 55 4D 6D 89 9A F0 F9 5B ")
    (data "60 39 D1 A2 7E BB 2E E0 DF C0 7E AA FA 7C 4C 7B EB 03 B7 02 E3 88 5E 8C 75 02 2B D5 4B C5 28 22 ")
    (data "67 61 96 97 2E E6 01 87 A9 EA AF EB F1 FC 5A 72 C5 5F A6 B4 97 3A 33 33 30 BF DB 30 1E 3A F4 9B ")
    (data "A7 6C 4E 88 B4 58 FE 90 E5 DB B5 A7 30 03 71 D6 7D F0 9D AB DF FF 62 A8 AB CC 87 BF 1C DD 9B CF ")
    (data "BE 80 19 FE 84 F1 40 CB 72 DF DE 22 EC B9 00 C7 3F 74 EB E8 AE EE BE 7F 83 84 9E E9 09 DC 73 D1 ")
    (data "36 5F DF C6 D1 76 24 75 DD 91 05 7E 48 57 12 6F 38 D0 8B 59 20 46 A2 AA 0F 07 2F C6 3D D8 97 D9 ")
    (data "7F 07 31 17 D8 55 55 EF 4D D2 37 55 7D 4F 44 B6 C1 9C 77 3F 87 7B 97 97 05 76 C3 04 4E 62 54 F5 ")
    (data "75 C0 19 E9 B9 8C 88 7C 3D E6 96 56 6C 97 59 FE 0E E7 61 7D 7D 1E 78 14 78 29 F8 5B 9C B3 F3 3F ")
    (data "23 FA FA 92 88 7C 06 53 DB 7E 8E 05 27 B1 2E E0 54 55 FD 49 4C FB E5 B6 BA 80 83 82 1C 60 7B 11 ")
    (data "3D 21 AE 26 22 4B F9 F3 91 61 C5 85 44 0B FD 2E E0 0E 60 EF 24 6A 61 55 7D 46 2C 86 DE 23 98 5F ")
    (data "99 CB 68 24 8B 99 E7 3B 8D 13 3C 01 5D 7A 52 96 82 4B 10 15 C9 64 26 E3 10 26 C5 6E 3D 05 B2 13 ")
    (data "1C 1B A2 A2 6A 66 B2 CB DF B3 B7 AF 74 0A A8 4B 88 15 A4 A4 CE E7 02 FC 6F 5E E6 34 91 56 A7 61 ")
    (data "4A 26 93 89 CB B0 E2 A4 2E 82 2C F0 EF DA 02 33 B3 5D 9B F8 95 79 09 33 F9 8E 45 55 5F 0F 5E 8C ")
    (data "9B 30 F5 45 07 F6 72 7D 35 6D 4E 33 55 2D 88 C8 7E 58 B0 E2 28 75 E5 92 22 32 21 10 4E 83 4D 59 ")
    (data "58 F7 61 67 7E 3F 02 AE 56 D5 50 B5 41 A5 A8 EA C7 22 F2 25 E0 3C CC 37 AF 03 5B 25 9F 9D 54 88 ")
    (data "0D E0 48 E0 9B 31 F7 F4 02 DB 62 E7 7F 9E 21 46 44 36 C6 84 8D 6B 77 5F C0 16 4E 7B A9 6A 62 47 ")
    (data "7F 55 9D 25 22 3B 02 CF E2 9E 0B 5A B1 05 D0 89 F5 DA 6D 2E 0A 5C 7D FD 29 AB 34 69 F1 A8 88 5B ")
    (data "2E DD 7F F7 B3 42 83 3A 2C B3 EF 0A AB 52 CA 46 09 8B 69 EF 5F FB E6 33 61 05 BD 6F 5D BE 1A 12 ")
    (data "61 58 82 5C DC 3C FE 60 E7 F1 CB B7 EE B8 67 6D A1 65 01 4B 44 59 E0 BF F5 C2 AB B7 DB AE E2 A0 ")
    (data "F1 49 05 59 87 88 38 83 3E F6 A3 15 53 21 AE 4E 74 74 8D FE 14 80 5B 55 F5 AD 84 7D 41 55 E7 05 ")
    (data "0E BB E7 00 C7 00 53 2A 4D CC A9 AA AF 88 C8 73 D8 4E C4 45 2F 66 92 3E 14 82 0C 4C 88 BD 00 6C ")
    (data "AB AA 1F D4 EB 21 C1 61 FB D1 22 F2 0F E0 6A E0 41 E0 AC 0A DB EA 14 91 3F 60 E7 24 AE 31 D0 81 ")
    (data "19 98 78 86 07 93 89 D6 9E F4 01 7B A6 11 62 65 54 F5 55 11 B9 34 78 86 EB 2C B6 88 19 56 DD 90 ")
    (data "B6 FD 91 42 46 FB 7E 26 A8 EB FB FB 1F 7D B9 D3 5C 75 8B F9 EC CF C4 A5 DE 55 DE 2F F6 89 B3 2E ")
    (data "14 2E 42 1D 75 85 F7 5A F2 79 67 36 6A 80 BE 52 D3 05 B8 37 0B EF D2 D2 77 66 54 FD 38 92 0A B2 ")
    (data "26 CC 38 22 0D 49 BD FF FB 80 D3 52 B6 5D 9E 74 8F 15 91 5B B1 09 B7 1A FE 8A 85 60 72 A9 3D 32 ")
    (data "98 A9 F0 50 D1 4D 9D 85 58 7F 54 F5 F7 22 F2 02 F0 9F 2A C3 4A DD 0B 7C 03 B7 A3 7B 16 58 B1 8A ")
    (data "F6 3D 35 22 38 06 D8 05 F7 3B A0 C0 DD AA 5A 4D 2C D4 0B 30 41 E6 62 0C B6 8B F7 82 2C 84 EB AE ")
    (data "3B 6A 97 8C F0 15 57 B9 28 C7 EF BD DF B9 A1 2E 4C 4B ED B1 D2 D7 20 B3 A3 EB 65 16 F4 F8 59 7F ")
    (data "7C 2D D4 8F B7 FB 8D 0B BF 21 22 5F 76 76 AC C4 71 AC 74 A4 D3 07 78 A7 3F 3D FA 4D 91 16 A7 61 ")
    (data "8A A2 C7 FC 79 9B 2F 56 A5 61 1A EA C8 1E 9D C0 05 AA 1A EA AF 90 04 55 7D A0 06 FD 78 1B DB 75 ")
    (data "B9 CE 06 CA 3E 2F 43 41 1F 16 9F 6E 50 84 58 19 55 0D 55 31 A4 E4 1D E2 FD 07 57 A8 C1 73 3C D5 ")
    (data "33 91 88 F3 0D EC 0C FA DA 6A 1E A0 AA EF 88 C8 7B B8 8D 14 C0 AC 1C 3D 03 B8 E3 8E C3 5B B2 82 ")
    (data "33 6E 21 F0 E4 BF 67 2E F9 AB B0 82 15 F6 58 A1 AD 58 6C 8D 38 1E 90 7F 7C BC DE CC DF 84 16 BD ")
    (data "F5 D3 36 A1 74 5E C4 C8 78 B8 75 C5 A3 AF 71 15 EE FC 97 27 DB 7B B5 F5 1C 67 7D E1 A1 BB 77 D9 ")
    (data "A0 EA 48 3F 43 29 C8 BA B0 9D D4 69 43 D8 87 32 73 88 9E 70 33 D4 D1 FC 3D 86 2E EC A0 BC 11 99 ")
    (data "43 BC 6A 79 A8 BE 57 CF 82 4C 22 FA 9C B8 09 A8 48 7D 3F 80 27 89 16 64 6D 22 B2 AC AA BE 5B 83 ")
    (data "67 2D 32 74 CE CA 9F 90 75 5B 41 97 24 53 FA BF 53 4F 3D 35 D4 0F 6F 4E 7E D4 F1 A8 7E DA 55 17 ")
    (data "D1 C9 7A 6A B8 0F 5F 4F B1 EF 87 98 6B 4D 68 DD 52 46 8F 24 62 01 F4 71 4F DB C9 98 05 77 18 45 ")
    (data "CD 94 FE 4F A3 17 50 89 18 2A 41 D6 49 A0 76 1A 46 4E 90 C3 39 32 FB AC A1 EE 40 15 0C E7 EF D5 ")
    (data "33 9F CD 88 3E 1F 6B C6 52 F4 54 CB DB 31 E5 3D 58 FC 54 2F C8 02 FE 72 CD 21 2B E6 B2 A5 63 5D ")
    (data "E5 22 7A D5 2E 7B 5E F9 58 58 59 FB CE EB AE 98 25 E3 AC 8B 70 C5 DC 5B 9E 7F 3C AC A8 F7 CD 33 ")
    (data "57 51 15 77 2E 30 E5 B2 F6 09 27 FD C3 55 BC C9 8D 33 56 95 52 29 CA 30 E5 E7 0F 7D 73 DD 5A 68 ")
    (data "7E 06 5D 90 F5 61 C6 1D A7 00 17 D6 2B AD 87 88 64 B1 74 2E 13 30 1F AC F6 E0 1A EB A8 B2 7E 3D ")
    (data "FA B1 28 22 22 2B 62 DF 6D F9 7B 1D 1D 5C 61 63 69 FC 20 76 CD 53 1D 6B 24 B8 E7 CF 66 90 5C 15 ")
    (data "AB 61 8B 1B 57 43 59 A2 77 6C 23 0E CD F6 FD 2C AB 4E 6B CF 59 B9 26 39 C9 55 37 5B C8 5C AC E2 ")
    (data "3C 32 F9 28 93 6D 3E C5 55 B7 54 28 5E 88 DB D6 E1 A3 42 9E 53 5D 75 01 4A 3D BD 3F 63 A0 C6 45 ")
    (data "3E F9 E7 FD 5C 26 17 59 3F 0D 83 21 C8 8A 98 9F 53 33 F0 1B E0 74 55 FD 6F 2D 1F 10 38 5D 7F 09 ")
    (data "D8 1B 33 C9 1F CF FC DC 5C 8A 7D CE 2C D1 6A AE A8 08 1F 23 92 C0 00 E0 0B D8 01 FC 76 D8 04 53 ")
    (data "C2 16 24 60 DF 6B 06 77 D4 06 A8 6F DC 46 4F ED 08 0F 1E 3B 9F 2C E9 0D BE 2A A1 99 DA 25 A4 6D ")
    (data "78 6E FF ED BE DB E6 44 77 75 95 0B 9C FC E5 DD 7F 1B BA 53 6E DD 6E 83 ED 32 99 EC CE CE BA A2 ")
    (data "3F 9C 73 DB 13 A1 3E 9C 5D AF 9D BC 93 A8 38 03 35 A8 70 C2 E8 D5 CF 70 FA 7F 6E 7C D5 E3 BB AA ")
    (data "E8 8E AE 29 57 55 4F 7C E4 C0 0D 6B A6 69 4A 2A C8 F2 C4 1F DA F7 6F B3 88 9D 8F BC 87 A5 80 B8 ")
    (data "03 78 B8 D6 FE 21 22 B2 04 96 BC F2 3B 41 1F C7 30 FF 9B F3 13 68 85 04 01 84 8F 02 8E C5 BE CF ")
    (data "76 16 1C 2B F5 8C F9 E8 19 1A 6A 91 0A A9 16 E4 F0 E3 0B 80 1B 6F DC A3 79 31 32 17 47 28 E7 FF ")
    (data "D5 3C FE BD D0 10 6F B2 C7 BA CD 2D DA 7A 51 C9 75 70 A3 FC B3 77 F1 95 AF 0C 2D 7B F9 F0 16 91 ")
    (data "8E F3 23 BA F6 64 FB CA AD 57 B9 0A 37 F9 E9 23 6D C5 F6 E2 05 0B 76 5B 3E 99 98 05 9E 78 E2 DD ")
    (data "4D 7F 1D D1 7E 6A 92 0A B2 2E CC 8F 2A 09 DD AA 9A 28 19 5A 35 88 C8 61 98 8F 53 8E 74 89 FE 3C ")
    (data "11 88 C8 2E CC 8F C6 52 8B 7C 64 9E C6 60 B8 2C FC 32 0C 9F BE 0C 29 4B F6 95 8E 82 92 4B E5 AB ")
    (data "64 74 F2 96 5B DE 57 08 2B CC 7D D4 76 4C 49 C5 59 57 45 26 EB 0D 37 84 6E 4E BA B4 E5 38 28 AC ")
    (data "EE A8 5B 12 4A 93 E1 6C A7 6D 43 77 53 F7 F1 E4 C5 21 2F 32 25 D5 E2 FF E9 A9 B1 41 E4 53 91 54 ")
    (data "90 A9 AA 0E 0B 83 83 40 DD 35 0D D8 0F 3F D1 D6 94 7A E7 3B F3 78 3C C9 98 7E ED D7 C7 67 4B 45 ")
    (data "E7 D9 17 70 CD 16 7B DF 12 6A 45 2A 5B 4D 1A 9F D3 DC 89 AE 8D 9C C2 AF 0B D3 1F 09 B5 84 EE 7E ")
    (data "E5 E8 15 A0 74 BC 73 17 A8 F2 AB B6 D5 2F 78 D4 D5 A9 75 2F FA DB 8A 99 42 E9 58 24 5C A9 28 70 ")
    (data "E5 D3 3F D8 2E D4 B8 A4 1A 86 DA 8F AC 12 2E C3 CE C2 BC 10 AB 21 22 F2 03 4C 4D EB 85 D8 C8 24 ")
    (data "CF F0 D8 09 D5 33 C7 60 C3 90 2D F5 9C 2F 6E 75 EF 5C 95 E2 09 AE BA 99 52 EE 82 92 3A EB CE 29 ")
    (data "91 71 0A 48 2D E6 2F C4 35 B7 0A B3 4A 99 C8 C0 CB D0 DD 7B 51 C9 3D 87 CC CA E7 34 4A 38 57 4C ")
    (data "43 09 B2 20 B9 64 12 21 56 C0 4C FC DB 81 F7 31 C7 DC 2E E6 1B 29 0C 64 59 4C 75 3A 22 85 A3 88 ")
    (data "AC 01 9C 49 32 21 36 07 53 E5 CE 03 DE 0A FE ED 8A B8 BF A2 68 D6 9E 41 A7 9B E8 DF BF 17 A2 AD ")
    (data "D4 6A 48 B5 91 7A 1A 9A C7 7F FB E5 CD 9B 54 F7 70 DE A0 9C 3A E9 DB 77 86 26 FB 95 4D B7 D8 1A ")
    (data "B2 BB BB 5B 97 53 F4 A1 E9 A1 75 3B 67 7E 7F 1B 51 76 73 D6 2C E9 8F 46 AD 79 A9 D3 05 63 ED D3 ")
    (data "FF B8 2D 19 D9 C5 FD 6C 4E 7A F1 F8 5D EB 12 20 BC A1 04 19 70 3E F1 C2 A6 0B 4B 43 31 0D 78 24 ")
    (data "49 5C 38 11 D9 0B DB E9 8D 54 7E 4C BC 63 72 27 F0 06 B6 6B BB 4B 55 93 64 F3 16 CC F0 C7 AF B2 ")
    (data "87 3F EF 02 4B 46 DD A0 AA E7 0C 52 5F 46 2C D3 A7 6F 95 1B 55 CA 4C 73 68 E6 40 99 91 E9 9D 3D ")
    (data "2D AC 48 B6 DA 2A D7 A2 85 0B 23 9A 7F BE B7 AF F7 D2 D0 92 19 7B 34 93 19 7B B1 DB AE 44 9E 6B ")
    (data "7F F7 53 97 B1 66 78 E9 BA 53 6E 6C 2E 96 B8 38 C2 24 F0 A9 97 5E A8 5F EE C1 86 11 64 41 7E AF ")
    (data "55 63 6E EB 02 76 4A 9A CA C5 03 22 D2 0A EC 80 3B C6 1E 98 10 BB 1A CB D7 34 5C 1C D8 3D B5 E5 ")
    (data "65 2C C1 A5 8B AC 88 B4 0E 86 21 D7 48 66 CC EB C5 C3 84 A2 33 1F 9D 96 E4 B0 8D 0E 7E 22 74 71 ")
    (data "3E BA BB F3 08 10 67 7E 3F 95 CC E4 9E 27 C2 EB 76 CA A8 23 D1 82 43 4C A1 2A 4C 66 CB 53 43 0D ")
    (data "4B 00 7A 7B FA 8E 46 DC C6 25 52 E2 48 BD 61 EF A4 96 EF A9 69 18 41 86 05 34 8D A2 17 4B 80 E9 ")
    (data "85 58 3A B6 C6 CE 47 A2 98 0D 1C EE 85 D8 22 CD 83 C0 97 71 EF CC BB B1 AC 16 95 64 4A F7 24 E0 ")
    (data "B9 2B 27 8D CB 35 65 7E E4 BC 41 E5 FA F5 F6 7F 28 74 7E 1B 37 69 D2 B8 16 2D 39 9D 9B 81 EB 3E ")
    (data "78 F4 B1 E9 61 05 9D 33 F6 5F 16 A2 0C 4B F4 DA 51 6B 5D 73 BF AB 74 B5 E3 AF 1D 5F 2C 16 7E B8 ")
    (data "C0 1F 17 D8 4F EA 6F 5E 3D EF 3B B5 08 6F E6 A4 91 04 D9 5A 44 87 D0 E9 C6 32 D1 7A D2 B1 32 F1 ")
    (data "6A C5 DB 54 B5 6E AB 29 CF B0 E0 31 2C 3C 94 6B 2C 34 01 DB 53 23 41 16 68 58 DE 49 92 9C 73 A4 ")
    (data "20 D9 E2 B9 39 2D B9 A2 0F 75 49 B1 70 BC AB 6E 53 A9 E7 7C B5 68 3B 61 CC CD E4 38 CE 55 57 B5 ")
    (data "F7 02 CC 07 D7 51 57 9D CF 05 28 F4 74 FF 44 9D 86 29 3A 87 8C 46 1B 88 D4 80 46 12 64 2B C5 94 ")
    (data "67 80 8F 2A 6C BB 1C A1 62 24 32 9E 78 41 16 7A 38 9C 80 26 A2 C3 11 79 86 0F 8F 12 1D DD A6 15 ")
    (data "98 2C 22 3F A9 76 67 1E B8 D0 FC 19 E8 14 91 2F D7 3A 49 6C 23 F2 EF 5F 6D B8 49 4E D8 D7 55 2E ")
    (data "C8 19 AB 1F F8 CF D0 7C 88 AB 7E 6E DD 4D 9B 95 7D 9C 8D AB 9C F1 EA E3 FF 0A 8D 71 39 77 C6 1E ")
    (data "9B 89 B2 A7 FB B9 3A A5 7D 8D 1B 9D 91 98 56 FC FE A5 9B 2B 38 8D 4B 14 4E 7D EB E7 DF AB 74 FE ")
    (data "48 4C 23 4D DE 49 2C EA 2A 9D 30 57 21 7A B7 B7 28 33 9A F8 EF AD D2 71 F2 69 A2 2D 1A 3D C3 84 ")
    (data "C0 28 EA 4E A2 83 3C 2F 81 F9 6F 56 CB 29 D8 D8 D8 10 78 52 44 96 AF 41 9B 8D CB 14 C9 34 51 B8 ")
    (data "30 A7 05 C9 69 81 90 EB E5 CC DC B9 3F 0D AB 2A 7B 48 36 A7 85 69 2D 5A 90 16 2D 10 72 CD CC CE ")
    (data "E9 B9 28 F4 B9 37 EE 91 95 62 61 1A 5A 10 B4 40 C8 F5 42 47 EF 12 E1 75 01 99 32 25 57 CC E7 2F ")
    (data "29 E5 FB A4 94 CF B3 D0 55 C8 CF 58 B6 98 BD A4 46 DF 52 24 8D B4 23 8B 8B CF 58 C2 72 86 3D 9F ")
    (data "A6 D1 60 75 78 00 D1 C6 0E 8B 32 6F 62 EE 0A 51 63 A1 D2 9C 61 FB C6 B4 EB 19 5E 5C 8C C5 2C 75 ")
    (data "25 42 1D 05 4C 13 91 27 55 B5 A2 B4 F4 22 72 00 70 1C F3 17 A6 13 80 A7 45 64 2B 55 7D AE 92 36 ")
    (data "1B 9D D7 27 AC 75 68 56 0B CE 0C F5 22 72 C4 84 C3 66 F6 86 95 7D E6 95 55 BE 27 5A D8 C0 D9 B8 ")
    (data "70 F8 0B 33 5F 0E AD DB B9 46 EF 64 54 9D 01 D3 45 4B 3F 60 E2 E5 CE F3 F3 65 5E ED 38 BC 28 7D ")
    (data "03 8C 4B E6 AF 89 45 65 F2 13 57 1F 9C 3A 9B 78 25 34 D2 24 F3 1F 4C 58 B9 76 07 1D C0 6E C0 7D ")
    (data "29 DB 3D 83 91 1D A4 F4 5D EC 6C 24 2A D6 DE 97 45 24 A7 AA 4E AB A5 81 88 C8 46 C0 0F F0 E1 C3 ")
    (data "1A 89 FB B0 F1 E0 12 64 60 02 E8 01 11 F9 9A AA 26 7E D7 82 C0 DE 67 03 87 B2 A0 76 25 87 99 FD ")
    (data "3F 22 22 3B A7 69 73 51 E0 AD AB D6 5D 22 23 F9 29 11 B7 DC B2 C2 FE 33 6F 0F 2B D8 78 E3 F1 4B ")
    (data "B6 16 9A 4E 73 EB 53 E4 A6 C7 9F 7E F5 AF 61 25 F3 9E DD 7E 19 D5 EC 69 CE A7 8A DC 38 6A FD DB ")
    (data "EE 74 15 8F DB FB AC 71 8A FC 28 74 FB 6E FD F9 FD FB D7 9E 38 68 BF 65 23 09 B2 FB 81 EF E1 3E ")
    (data "D0 6C 02 0E 10 91 5B 54 F5 9E B8 C6 44 A4 1D 38 17 0B 38 9C C4 11 7A 09 11 59 79 C0 DF DE 74 F9 ")
    (data "A9 89 C8 B2 40 12 95 49 92 CC D3 6B 88 48 E8 AA 2A 82 39 AA 3A 33 C1 7D 0F 10 AF 3A 1C 85 F9 F0 ")
    (data "1D 99 E4 C1 22 F2 0D E0 57 24 53 D7 B6 85 7C AF 1F A9 6A 68 EA 74 11 E9 00 97 37 8B 93 B8 CF 97 ")
    (data "13 91 89 29 DB 7C 49 55 E7 46 DD 10 A4 13 72 AF 96 C3 49 A2 42 DF 30 E5 78 78 35 49 88 39 55 55 ")
    (data "11 39 0A F8 1D EE 85 8D 60 EF E0 6D 22 72 1B 70 4A 54 86 F7 E0 F7 DA 03 5B 30 8E 25 FC F3 49 F0 ")
    (data "BC DB 44 64 A7 84 EF EF 5A 8E B6 5C C4 45 F7 07 58 29 E5 38 98 A5 AA AF A6 B8 7F 21 B2 32 6F 2A ")
    (data "B0 94 A3 B8 3B 53 C2 99 CF AB B9 47 CE 81 C2 92 0E 65 70 77 2E 93 73 E6 12 D3 92 9E 03 85 50 C3 ")
    (data "12 81 AE 42 A9 E8 CE 61 06 E4 FB 0A E7 89 38 E7 E2 2E 95 68 03 91 5A 23 58 8A F3 7B 70 0B 08 80 ")
    (data "8F 55 75 F1 C1 E9 52 38 81 BF D3 2C E2 57 F8 DD D8 8B F8 73 E0 E9 FE D6 76 22 D2 04 AC 0B 7C 03 ")
    (data "13 8A 2D 24 7B 19 8A 98 2F 55 7F 3A 80 B5 5C C2 42 44 8E 03 4E C7 DC 02 A2 10 A2 57 C0 BD 09 DA ")
    (data "18 48 0E F8 A7 AA 6E 9E E4 66 11 79 93 F8 DC 61 9D C0 BF B0 09 E9 BE 81 99 0C 44 E4 D3 C0 B6 C0 ")
    (data "E1 98 BA A8 3C 11 16 89 F7 51 EB 6F 11 D9 02 9C A9 AA 67 3A FA 3A 09 CB 54 9C 26 93 42 33 D1 E3 ")
    (data "A6 9B 78 17 84 FE B4 02 3B C4 B9 7A 88 C8 68 E0 63 2C FA 49 52 E2 A2 BF A7 1D 0F 2D C0 B7 54 F5 ")
    (data "0F 49 2B 88 C8 9D C0 56 C4 87 AC 2A 60 D1 72 E6 60 0B CD 97 B1 8C 17 6D D8 22 6E 12 B0 1E F6 DD ")
    (data "46 8D F1 32 B3 80 D5 55 35 36 FA 83 88 BC 18 3C 23 A9 35 6D DC 7B 56 20 DD 79 6E 13 70 AF AA 3A ")
    (data "53 9D C4 F1 E1 95 9F 9A 58 92 CC E3 B8 16 5A A2 A7 2D 73 C0 DB A1 BB B5 AD D7 FB D4 44 41 DD 75 ")
    (data "91 53 EE 79 F6 BF A1 EF D0 9C A7 B7 F9 9C 94 4A 8F BA EB 72 D2 E8 8D EE 3D CB D5 EF 25 77 3D 79 ")
    (data "93 12 F2 20 8E B3 75 85 13 3E BE E5 8C 41 75 9E 6F 98 1D 99 AA F6 88 C8 EF B1 10 55 51 D6 55 6D ")
    (data "D8 81 F4 EE 40 AB 88 CC C2 06 E8 68 CC C4 B4 1B 7B B9 FB 5B EA 75 62 BE 52 CB 12 FE E3 66 59 D8 ")
    (data "3C 35 72 35 1E 90 09 A9 97 96 81 7D 4D 4A 9A DF F6 A7 C0 14 A2 D5 8B 1D C0 C6 C0 75 40 87 88 CC ")
    (data "C6 26 E8 36 6C 11 54 C0 0C 05 FA B7 51 C4 BE A7 26 DC BB DE 81 7F 4F 62 11 D7 89 3B 49 6A 25 B4 ")
    (data "91 CE D8 27 74 B7 E8 A0 40 F5 63 A0 3F 69 C7 C3 9C 0A 9E B1 1F F0 1C A6 F2 8B 32 04 CA 31 5F F0 ")
    (data "7E 33 F8 5B 2F 0B 47 B0 4F A2 5E EE 02 F6 4D 22 C4 FA 3D BB 96 21 E5 72 A4 FF 9D 2A 9F 3F A7 48 ")
    (data "26 33 7E DC B4 0C 25 97 30 79 A3 B7 90 3D 2F BC AA 64 5A D7 59 EA 12 DC 82 E8 95 EE CE 51 8E 34 ")
    (data "2C 92 A1 B8 F9 34 8D A8 3B 66 6E F6 02 57 B7 65 8F 3D B2 63 F2 2B 5F A2 AE 71 21 BC 3C B7 D4 15 ")
    (data "15 5D A4 2E 34 92 D5 22 C0 89 24 5B 39 E7 30 C1 D5 84 A9 EE 56 C2 5E CA 26 6C B0 0E 9C 08 BA 80 ")
    (data "83 59 78 D7 35 52 98 46 B2 09 AF AC 56 2A 9F 6B 4C C0 BE DF 16 6C 52 19 28 08 7B 81 AF 33 72 0D ")
    (data "69 1A 12 55 7D 0F 8B F6 52 C9 FB D0 42 FA E0 C3 9D C0 49 AA 7A 5B 05 CF 6B 48 66 2F BF C4 FE 59 ")
    (data "CD 4F CA 6A 9E B0 2B 53 2A 1E B6 DC C1 6F 87 EE 10 9F 59 67 B1 03 5B B4 B0 B1 C3 4A 91 56 29 1E ")
    (data "79 DF 6B AF 85 46 60 99 FD E4 A4 83 D1 C2 E7 1D 56 8A 40 F1 08 B6 BC CF 19 BD 65 D4 C7 2B 1C 5A ")
    (data "EC CB 6F 50 EA 0B B1 52 CC E7 29 E6 0B 87 EB ED 17 A5 D5 20 55 4D 43 09 32 55 7D 17 98 4C 6D 05 ")
    (data "4E 27 B0 3F 96 FC B3 2E 01 2D 87 3B 81 53 EA EE D4 FE 7B 9D 1A A8 DF EE C3 76 26 9E 06 41 55 9F ")
    (data "C0 B2 82 CF 25 D9 2E B9 52 BA 80 93 55 75 D0 57 F1 43 C5 EC 4B C7 2E 9E A3 70 76 8E 02 A1 97 16 ")
    (data "EE 1A FB DD 0F 42 83 3B EC B3 DE D8 C5 9B 8A A5 1F 37 97 8A 38 AE 3F DF FC AF 8F FE 12 56 77 CE ")
    (data "23 9B 2C 21 A5 E2 19 4E 21 56 2A FE 69 CC C4 87 9C 8B 89 31 DB 4C 5E B2 D0 97 9F 52 CC E7 29 E6 ")
    (data "F3 14 FB 16 BC 0A 7D F9 9B 3B EF 3C FF 8E 5A 7D 4F 69 68 28 41 06 A0 AA BF C6 8C 34 6A 31 E9 76 ")
    (data "02 67 A8 EA 6D 81 93 E7 3E 8C 50 BF 27 55 7D 18 F8 16 F6 F9 A3 7C 89 92 D0 89 39 BC 96 75 F4 87 ")
    (data "62 13 62 B5 ED 7A 06 11 55 7D 04 D8 08 78 95 DA 6B 2B 7A B0 33 B1 DD 46 92 10 03 68 CE E5 4F CF ")
    (data "6A 61 E9 AC 16 08 B9 FA 72 59 3D DC 55 37 D3 D7 77 66 8B 16 96 76 EC C6 7A 5B E9 73 1A 78 48 B6 ")
    (data "E7 2C B4 B0 94 43 90 F5 A2 7D 91 06 1E 7D DD C5 A9 A5 7C 7E C9 50 9F B1 7C BE 5B B4 DB F9 EC 7A ")
    (data "D3 70 82 0C 40 55 4F C7 7C BF E6 E2 4E CD 12 45 F9 60 F7 F0 FE 11 BD 83 17 F7 1B 41 BB 23 2E 38 ")
    (data "AA AA DE 82 1D F2 BF 4B 3A 63 8A 4F 9A C0 BE D7 69 C0 3E AA AA 41 BB 6F 00 5B 62 11 42 46 AA FA ")
    (data "B6 21 51 D5 72 30 E1 73 B0 DF B6 92 71 D1 9F 5E EC DD BA 1E 58 59 55 9D 26 DE 8B 22 7D 57 B5 AC ")
    (data "DB 44 E1 D0 88 DD D8 F9 2D 07 CC 79 31 AC EE FE 6B B5 7C A6 45 0B 07 37 6B 81 B0 AB A9 54 3C F7 ")
    (data "EA 17 7A 5E 0A AB 3B FB D1 F5 37 2A 69 E1 20 D5 02 61 57 A9 54 9C 3A 66 E3 A7 9C 56 CE CD 93 BE ")
    (data "3B B1 90 CF 1F F0 C9 6E 6C C0 55 C8 E7 A7 76 DF FF 8B D7 6A F5 3D A5 A5 7C 58 39 1A B7 25 94 90 ")
    (data "CE A2 6B 50 50 D5 1B 44 E4 21 E0 87 98 09 7D 81 F8 28 15 5D 98 F0 BE 1B 38 2A 78 49 07 B6 7B 87 ")
    (data "88 AC 02 1C 01 EC 89 45 20 08 FB FC 51 86 11 65 32 A4 B7 38 AC 05 15 3F 57 55 1F 17 91 D5 31 EB ")
    (data "C3 A3 B1 F3 AD 51 44 9F 73 F5 62 EA A7 67 B1 C5 C1 42 19 60 55 F5 59 11 59 0D 38 10 38 08 58 3B ")
    (data "A8 33 70 97 96 E4 00 7D 0C 43 F3 BD F6 7F 7E 52 9A 18 DA BE 56 6D 10 11 A8 9E CF 10 91 4B B0 71 ")
    (data "71 08 F3 C7 44 12 23 99 3E EC 3B C8 03 BF 01 CE 57 D5 D0 90 49 29 E8 0B AE A1 DA E5 67 A9 60 5E ")
    (data "CC 15 0A 07 89 E8 33 A1 85 C2 5C 69 53 A7 B5 60 7B BE 70 10 AE BA 30 A7 D0 A5 53 5D 75 55 F3 07 ")
    (data "08 3C ED 28 9C 3D 8F 79 E7 44 59 4F 15 7B FB 0E 54 78 CA 51 3C 4B C7 66 CE 8D A8 5E 77 84 70 8B ")
    (data "BC 81 94 86 73 3C 34 11 59 0C D3 E7 6F 0B 7C 11 F3 CB 18 85 4D 8A DD 58 0C C6 A7 80 BF 01 37 06 ")
    (data "87 D9 69 DA 77 B9 1E CC 76 C5 9D 0B DC 05 86 32 EC 55 5E 55 D3 98 7D 2F 44 E0 AE B0 35 B6 4B DB ")
    (data "1E B3 EA 1C 83 7D AE 6E CC 40 E4 79 EC 0C EC FA B0 85 41 4C FB 63 08 17 90 DD AE 74 21 22 52 36 ")
    (data "E4 19 6A E6 C6 39 88 07 F9 D8 6A 69 5D 59 29 9D B5 0E CE 2B 22 1B 60 EF DA B6 C0 6A 98 9F 56 D9 ")
    (data "A2 B2 3B B8 66 01 CF 60 71 1C EF C5 5C 42 6A 22 78 22 C6 CE 60 D2 A7 AA 5E C3 30 0C F8 7F 6C D8 ")
    (data "B2 22 1A A9 06 A3 00 00 00 00 49 45 4E 44 AE 42 60 82 ")
    )
  )
)
