<?xml version="1.0" encoding="UTF-8" standalone="no"?>
<!-- Created with Inkscape (http://www.inkscape.org/) -->

<svg
   width="210mm"
   height="297mm"
   viewBox="0 0 210 297"
   version="1.1"
   id="svg5"
   xmlns:xlink="http://www.w3.org/1999/xlink"
   xmlns="http://www.w3.org/2000/svg"
   xmlns:svg="http://www.w3.org/2000/svg">
  <defs
     id="defs2">
    <marker
       id="DistanceX"
       orient="auto"
       refX="0.0"
       refY="0.0"
       style="overflow:visible">
      <path
         d="M 3,-3 L -3,3 M 0,-5 L  0,5"
         style="stroke:#000000; stroke-width:0.5"
         id="path11" />
    </marker>
    <pattern
       id="Hatch"
       patternUnits="userSpaceOnUse"
       width="8"
       height="8"
       x="0"
       y="0">
      <path
         d="M8 4 l-4,4"
         stroke="#000000"
         stroke-width="0.25"
         linecap="square"
         id="path14" />
      <path
         d="M6 2 l-4,4"
         stroke="#000000"
         stroke-width="0.25"
         linecap="square"
         id="path16" />
      <path
         d="M4 0 l-4,4"
         stroke="#000000"
         stroke-width="0.25"
         linecap="square"
         id="path18" />
    </pattern>
    <symbol
       id="PART__FEATURE" />
  </defs>
  <g
     id="g1164">
    <path
       id="path210"
       style="vector-effect:non-scaling-stroke;fill:none;stroke:#00ff00;stroke-width:0.00070004;stroke-miterlimit:4;stroke-dasharray:none;-inkscape-stroke:hairline;stroke-opacity:1"
       d="m 66.500094,121.25004 a 3,3 0 0 0 -3,2.99998 m -5e-5,56.00107 v -56.00171 m 4.9e-5,56.00065 a 3,3 0 0 0 3,3 m 76.999887,-0.001 H 66.500153 m 76.999937,0.001 a 3,3 0 0 0 3,-3 m 0,-56.00065 v 56.00171 m 0,-56.00107 a 3,3 0 0 0 -3,-2.99998 m -76.999936,-0.001 h 76.999826" />
    <path
       id="path132"
       style="vector-effect:non-scaling-stroke;fill:none;stroke:#ff0000;stroke-width:0.00070004;stroke-miterlimit:4;stroke-dasharray:none;-inkscape-stroke:hairline;stroke-opacity:1"
       d="m 66.500024,116.64997 a 7.5999998,7.5999998 0 0 0 -7.6,7.59999 m -9.8e-5,-6.4e-4 v 56.00171 m 9.8e-5,-0.001 a 7.5999998,7.5999998 0 0 0 7.6,7.6 m 5.8e-5,-5e-5 h 76.999828 m 1.1e-4,1.1e-4 a 7.5999998,7.5999998 0 0 0 7.6,-7.6 m 5e-5,10e-4 v -56.00171 m -5e-5,6.4e-4 a 7.5999998,7.5999998 0 0 0 -7.6,-7.59999 m -1.1e-4,-1e-5 h -25.99433 m -4.33013,-2.49999 a 5,5 0 0 0 4.33012,2.5 m -4.33013,-2.50006 -1.44336,-2.50005 m -1e-5,1.1e-4 a 5,5 0 0 0 -4.33013,-2.5 m 0,1.1e-4 h -4.80383 m -1e-5,-1.1e-4 a 5,5 0 0 0 -4.330128,2.5 m -5e-6,-1.1e-4 -1.443381,2.50005 m -4.330116,2.50006 a 5,5 0 0 0 4.330127,-2.5 m -4.330129,2.50005 H 66.500082" />
  </g>
  <use
     xlink:href="#PART__FEATURE"
     id="use244"
     x="0"
     y="0"
     width="100%"
     height="100%"
     transform="matrix(0.26458333,0,0,0.26458333,103.01098,-154.23008)" />
</svg>
